what,kind,bundleId,bundleVersion,description,time
started,bundle,org.eclipse.ui.views,3.6.0.v20110928-1505,"org.eclipse.ui.views",1381086816150
started,bundle,org.eclipse.ui.workbench,3.7.1.v20120104-1859,"org.eclipse.ui.workbench",1381086816150
started,bundle,org.eclipse.ui.workbench.texteditor,3.7.0.v20110928-1504,"org.eclipse.ui.workbench.texteditor",1381086816151
started,bundle,org.eclipse.update.configurator,3.3.100.v20100512,"org.eclipse.update.configurator",1381086816152
started,bundle,org.eclipse.update.core,3.2.500.v20110330,"org.eclipse.update.core",1381086816152
started,bundle,org.eclipse.update.scheduler,3.2.300.v20100512,"org.eclipse.update.scheduler",1381086816153
started,bundle,org.eclipse.wb.discovery.core,1.3.0.r37x201202052340,"org.eclipse.wb.discovery.core",1381086816153
started,bundle,org.eclipse.wst.common.project.facet.core,1.4.201.v201201101553,"org.eclipse.wst.common.project.facet.core",1381086816154
started,bundle,org.eclipse.wst.common.uriresolver,1.1.401.v201004280700,"org.eclipse.wst.common.uriresolver",1381086816154
started,bundle,org.eclipse.wst.dtd.ui,1.0.600.v201103171359,"org.eclipse.wst.dtd.ui",1381086816155
started,bundle,org.eclipse.wst.sse.core,1.1.602.v201112071516,"org.eclipse.wst.sse.core",1381086816156
started,bundle,org.eclipse.wst.sse.ui,1.3.2.v201201041522,"org.eclipse.wst.sse.ui",1381086816160
started,bundle,org.eclipse.wst.validation,1.2.303.v201202090300,"org.eclipse.wst.validation",1381086816160
started,bundle,org.eclipse.wst.xml.core,1.1.602.v201201091944,"org.eclipse.wst.xml.core",1381086816161
started,bundle,org.eclipse.wst.xml.ui,1.1.202.v201112071516,"org.eclipse.wst.xml.ui",1381086816162
started,bundle,com.android.ide.eclipse.adt,22.2.1.v201309180102-833290,"com.android.ide.eclipse.adt",1381086816163
started,bundle,com.android.ide.eclipse.base,22.2.1.v201309180102-833290,"com.android.ide.eclipse.base",1381086816163
started,bundle,org.eclipse.cdt.dsf,2.2.0.201202111925,"org.eclipse.cdt.dsf",1381086816164
started,bundle,org.eclipse.cdt.dsf.gdb,4.0.2.201202111925,"org.eclipse.cdt.dsf.gdb",1381086816164
started,bundle,org.eclipse.cdt.dsf.gdb.ui,2.2.1.201202111925,"org.eclipse.cdt.dsf.gdb.ui",1381086816165
os,sysinfo,,,"linux",1381086816169
arch,sysinfo,,,"x86_64",1381086816169
ws,sysinfo,,,"gtk",1381086816169
locale,sysinfo,,,"en_IE",1381086816169
processors,sysinfo,,,"4",1381086816169
java.runtime.name,sysinfo,,,"OpenJDK Runtime Environment",1381086816169
java.runtime.version,sysinfo,,,"1.6.0_27-b27",1381086816169
java.specification.name,sysinfo,,,"Java Platform API Specification",1381086816169
java.specification.vendor,sysinfo,,,"Sun Microsystems Inc.",1381086816169
java.specification.version,sysinfo,,,"1.6",1381086816169
java.vendor,sysinfo,,,"Sun Microsystems Inc.",1381086816169
java.version,sysinfo,,,"1.6.0_27",1381086816169
java.vm.info,sysinfo,,,"mixed mode",1381086816169
java.vm.name,sysinfo,,,"OpenJDK 64-Bit Server VM",1381086816169
java.vm.specification.name,sysinfo,,,"Java Virtual Machine Specification",1381086816169
java.vm.specification.vendor,sysinfo,,,"Sun Microsystems Inc.",1381086816169
java.vm.specification.version,sysinfo,,,"1.0",1381086816169
java.vm.vendor,sysinfo,,,"Sun Microsystems Inc.",1381086816170
java.vm.version,sysinfo,,,"20.0-b12",1381086816170
started,bundle,org.eclipse.m2e.usagedata,1.0.200.20111228-1245,"org.eclipse.m2e.usagedata",1381086816177
started,bundle,org.eclipse.wb.discovery.ui,1.3.0.r37x201202052340,"org.eclipse.wb.discovery.ui",1381086816874
started,bundle,org.eclipse.cdt.codan.ui.cxx,2.0.0.201202111925,"org.eclipse.cdt.codan.ui.cxx",1381086816895
started,bundle,org.eclipse.cdt.make.core,7.1.2.201202111925,"org.eclipse.cdt.make.core",1381086816970
started,bundle,org.eclipse.cdt.managedbuilder.core,8.0.2.201202111925,"org.eclipse.cdt.managedbuilder.core",1381086817019
started,bundle,org.eclipse.cdt.core,5.3.2.201202111925,"org.eclipse.cdt.core",1381086817086
started,bundle,org.eclipse.ui.navigator,3.5.101.v20120106-1355,"org.eclipse.ui.navigator",1381086817125
started,bundle,org.eclipse.cdt.ui,5.3.2.201202111925,"org.eclipse.cdt.ui",1381086817200
started,bundle,org.eclipse.cdt.codan.core.cxx,1.0.0.201202111925,"org.eclipse.cdt.codan.core.cxx",1381086817201
started,bundle,org.eclipse.cdt.codan.core,2.0.0.201202111925,"org.eclipse.cdt.codan.core",1381086817203
started,bundle,org.eclipse.cdt.make.ui,7.1.2.201202111925,"org.eclipse.cdt.make.ui",1381086817207
started,bundle,org.eclipse.cdt.codan.checkers,1.0.1.201202111925,"org.eclipse.cdt.codan.checkers",1381086817219
opened,view,org.eclipse.ui.ide,3.7.0.v20110928-1505,"org.eclipse.ui.views.ProblemView",1381086817918
started,bundle,org.eclipse.jdt.apt.core,3.3.500.v20110420-1015,"org.eclipse.jdt.apt.core",1381086822881
started,bundle,org.eclipse.jdt.apt.pluggable.core,1.0.400.v20110305-1450,"org.eclipse.jdt.apt.pluggable.core",1381086822887
activated,workbench,org.eclipse.ui.workbench,3.7.1.v20120104-1859,"",1381086839861
activated,editor,com.android.ide.eclipse.adt,22.2.1.v201309180102-833290,"com.android.ide.eclipse.editors.CommonXmlEditor",1381086839868
activated,view,org.eclipse.jdt.ui,3.7.2.v20120109-1427,"org.eclipse.jdt.ui.PackageExplorer",1381086841760
deactivated,workbench,org.eclipse.ui.workbench,3.7.1.v20120104-1859,"",1381086842783
executed,command,org.eclipse.ui,3.7.0.v20110928-1505,"org.eclipse.ui.newWizard",1381086859876
activated,workbench,org.eclipse.ui.workbench,3.7.1.v20120104-1859,"",1381086859906
opened,editor,com.android.ide.eclipse.adt,22.2.1.v201309180102-833290,"com.android.ide.eclipse.editors.CommonXmlEditor",1381086860089
activated,editor,com.android.ide.eclipse.adt,22.2.1.v201309180102-833290,"com.android.ide.eclipse.editors.CommonXmlEditor",1381086860159
started,bundle,org.eclipse.wb.core.lib,1.3.0.r37x201202052311,"org.eclipse.wb.core.lib",1381086860228
started,bundle,org.eclipse.wb.core,1.3.0.r37x201202052311,"org.eclipse.wb.core",1381086860258
deactivated,workbench,org.eclipse.ui.workbench,3.7.1.v20120104-1859,"",1381086866432
activated,workbench,org.eclipse.ui.workbench,3.7.1.v20120104-1859,"",1381090414010
deactivated,workbench,org.eclipse.ui.workbench,3.7.1.v20120104-1859,"",1381090453562
activated,workbench,org.eclipse.ui.workbench,3.7.1.v20120104-1859,"",1381090461923
executed,command,org.eclipse.ui,3.7.0.v20110928-1505,"org.eclipse.ui.edit.paste",1381090466686
deactivated,workbench,org.eclipse.ui.workbench,3.7.1.v20120104-1859,"",1381090477478
activated,workbench,org.eclipse.ui.workbench,3.7.1.v20120104-1859,"",1381090519484
activated,view,org.eclipse.jdt.ui,3.7.2.v20120109-1427,"org.eclipse.jdt.ui.PackageExplorer",1381090547726
opened,editor,com.android.ide.eclipse.adt,22.2.1.v201309180102-833290,"com.android.ide.eclipse.editors.CommonXmlEditor",1381090556664
activated,editor,com.android.ide.eclipse.adt,22.2.1.v201309180102-833290,"com.android.ide.eclipse.editors.CommonXmlEditor",1381090556722
activated,view,org.eclipse.jdt.ui,3.7.2.v20120109-1427,"org.eclipse.jdt.ui.PackageExplorer",1381090556750
activated,editor,com.android.ide.eclipse.adt,22.2.1.v201309180102-833290,"com.android.ide.eclipse.editors.CommonXmlEditor",1381090560535
executed,command,org.eclipse.ui,3.7.0.v20110928-1505,"org.eclipse.ui.edit.copy",1381090567024
executed,command,org.eclipse.ui,3.7.0.v20110928-1505,"org.eclipse.ui.edit.paste",1381090571200
activated,editor,com.android.ide.eclipse.adt,22.2.1.v201309180102-833290,"com.android.ide.eclipse.editors.CommonXmlEditor",1381090583357
activated,editor,com.android.ide.eclipse.adt,22.2.1.v201309180102-833290,"com.android.ide.eclipse.editors.CommonXmlEditor",1381090584175
executed,command,org.eclipse.ui,3.7.0.v20110928-1505,"org.eclipse.ui.file.save",1381090585947
executed,command,org.eclipse.ui,3.7.0.v20110928-1505,"org.eclipse.ui.file.save",1381090593825
deactivated,workbench,org.eclipse.ui.workbench,3.7.1.v20120104-1859,"",1381090599215
activated,workbench,org.eclipse.ui.workbench,3.7.1.v20120104-1859,"",1381090599241
activated,editor,com.android.ide.eclipse.adt,22.2.1.v201309180102-833290,"com.android.ide.eclipse.editors.CommonXmlEditor",1381090602430
executed,command,org.eclipse.ui,3.7.0.v20110928-1505,"org.eclipse.ui.file.save",1381090613858
activated,editor,com.android.ide.eclipse.adt,22.2.1.v201309180102-833290,"com.android.ide.eclipse.editors.CommonXmlEditor",1381090616928
activated,editor,com.android.ide.eclipse.adt,22.2.1.v201309180102-833290,"com.android.ide.eclipse.editors.CommonXmlEditor",1381090618733
deactivated,workbench,org.eclipse.ui.workbench,3.7.1.v20120104-1859,"",1381090623657
activated,workbench,org.eclipse.ui.workbench,3.7.1.v20120104-1859,"",1381090661194
deactivated,workbench,org.eclipse.ui.workbench,3.7.1.v20120104-1859,"",1381090663060
activated,workbench,org.eclipse.ui.workbench,3.7.1.v20120104-1859,"",1381090665567
activated,editor,com.android.ide.eclipse.adt,22.2.1.v201309180102-833290,"com.android.ide.eclipse.editors.CommonXmlEditor",1381090667211
activated,view,org.eclipse.jdt.ui,3.7.2.v20120109-1427,"org.eclipse.jdt.ui.PackageExplorer",1381090672191
activated,editor,com.android.ide.eclipse.adt,22.2.1.v201309180102-833290,"com.android.ide.eclipse.editors.CommonXmlEditor",1381090675351
activated,editor,com.android.ide.eclipse.adt,22.2.1.v201309180102-833290,"com.android.ide.eclipse.editors.CommonXmlEditor",1381090675383
closed,editor,com.android.ide.eclipse.adt,22.2.1.v201309180102-833290,"com.android.ide.eclipse.editors.CommonXmlEditor",1381090675384
activated,editor,com.android.ide.eclipse.adt,22.2.1.v201309180102-833290,"com.android.ide.eclipse.editors.CommonXmlEditor",1381090677758
closed,editor,com.android.ide.eclipse.adt,22.2.1.v201309180102-833290,"com.android.ide.eclipse.editors.CommonXmlEditor",1381090677758
opened,editor,com.android.ide.eclipse.adt,22.2.1.v201309180102-833290,"com.android.ide.eclipse.editors.manifest.ManifestEditor",1381090680301
activated,editor,com.android.ide.eclipse.adt,22.2.1.v201309180102-833290,"com.android.ide.eclipse.editors.manifest.ManifestEditor",1381090680333
closed,editor,com.android.ide.eclipse.adt,22.2.1.v201309180102-833290,"com.android.ide.eclipse.editors.CommonXmlEditor",1381090680333
started,bundle,org.eclipse.wst.common.frameworks,1.2.102.v201201190400,"org.eclipse.wst.common.frameworks",1381090681802
started,bundle,org.eclipse.wst.internet.cache,1.0.400.v201004280700,"org.eclipse.wst.internet.cache",1381090681849
started,bundle,org.eclipse.core.variables,3.2.500.v20110928-1503,"org.eclipse.core.variables",1381090681901
opened,editor,org.eclipse.jdt.ui,3.7.2.v20120109-1427,"org.eclipse.jdt.ui.CompilationUnitEditor",1381090683758
started,bundle,org.eclipse.jdt.debug,3.7.1.v20111006_r372,"org.eclipse.jdt.debug",1381090683965
started,bundle,org.eclipse.jdt.debug.ui,3.6.1.v20111006_r372,"org.eclipse.jdt.debug.ui",1381090689098
activated,editor,org.eclipse.jdt.ui,3.7.2.v20120109-1427,"org.eclipse.jdt.ui.CompilationUnitEditor",1381090689137
closed,editor,com.android.ide.eclipse.adt,22.2.1.v201309180102-833290,"com.android.ide.eclipse.editors.manifest.ManifestEditor",1381090689137
opened,editor,org.eclipse.jdt.ui,3.7.2.v20120109-1427,"org.eclipse.jdt.ui.CompilationUnitEditor",1381090689376
activated,editor,org.eclipse.jdt.ui,3.7.2.v20120109-1427,"org.eclipse.jdt.ui.CompilationUnitEditor",1381090689467
deactivated,workbench,org.eclipse.ui.workbench,3.7.1.v20120104-1859,"",1381090689472
activated,workbench,org.eclipse.ui.workbench,3.7.1.v20120104-1859,"",1381090698066
started,bundle,org.eclipse.jdt.junit.core,3.7.0.v20110928-1453,"org.eclipse.jdt.junit.core",1381090698857
started,bundle,org.eclipse.jdt.junit,3.7.0.v20110928-1453,"org.eclipse.jdt.junit",1381090698860
started,bundle,org.eclipse.cdt.debug.core,7.1.0.201202111925,"org.eclipse.cdt.debug.core",1381090698952
started,bundle,org.eclipse.cdt.debug.ui,7.1.2.201202111925,"org.eclipse.cdt.debug.ui",1381090698959
started,bundle,com.android.ide.eclipse.ndk,22.2.1.v201309180102-833290,"com.android.ide.eclipse.ndk",1381090699198
activated,editor,org.eclipse.jdt.ui,3.7.2.v20120109-1427,"org.eclipse.jdt.ui.CompilationUnitEditor",1381090700124
activated,editor,org.eclipse.jdt.ui,3.7.2.v20120109-1427,"org.eclipse.jdt.ui.CompilationUnitEditor",1381090701489
executed,command,org.eclipse.ui,3.7.0.v20110928-1505,"org.eclipse.ui.edit.paste",1381090717009
executed,command,org.eclipse.jdt.ui,3.7.2.v20120109-1427,"org.eclipse.jdt.ui.edit.text.java.organize.imports",1381090721444
executed,command,org.eclipse.ui,3.7.0.v20110928-1505,"org.eclipse.ui.file.save",1381090725944
activated,view,org.eclipse.jdt.ui,3.7.2.v20120109-1427,"org.eclipse.jdt.ui.PackageExplorer",1381090732143
activated,editor,org.eclipse.jdt.ui,3.7.2.v20120109-1427,"org.eclipse.jdt.ui.CompilationUnitEditor",1381090735751
executed,command,org.eclipse.ui,3.7.0.v20110928-1505,"org.eclipse.ui.file.save",1381090748024
executed,command,org.eclipse.ui,3.7.0.v20110928-1505,"org.eclipse.ui.edit.copy",1381090755048
activated,editor,org.eclipse.jdt.ui,3.7.2.v20120109-1427,"org.eclipse.jdt.ui.CompilationUnitEditor",1381090756481
executed,command,org.eclipse.ui,3.7.0.v20110928-1505,"org.eclipse.ui.edit.paste",1381090765060
executed,command,org.eclipse.ui,3.7.0.v20110928-1505,"org.eclipse.ui.file.save",1381090769115
activated,view,org.eclipse.jdt.ui,3.7.2.v20120109-1427,"org.eclipse.jdt.ui.PackageExplorer",1381090778004
activated,editor,org.eclipse.jdt.ui,3.7.2.v20120109-1427,"org.eclipse.jdt.ui.CompilationUnitEditor",1381090792524
activated,view,org.eclipse.jdt.ui,3.7.2.v20120109-1427,"org.eclipse.jdt.ui.PackageExplorer",1381090796155
opened,editor,com.android.ide.eclipse.adt,22.2.1.v201309180102-833290,"com.android.ide.eclipse.editors.CommonXmlEditor",1381090796291
activated,editor,com.android.ide.eclipse.adt,22.2.1.v201309180102-833290,"com.android.ide.eclipse.editors.CommonXmlEditor",1381090796365
activated,view,org.eclipse.jdt.ui,3.7.2.v20120109-1427,"org.eclipse.jdt.ui.PackageExplorer",1381090796401
activated,editor,com.android.ide.eclipse.adt,22.2.1.v201309180102-833290,"com.android.ide.eclipse.editors.CommonXmlEditor",1381090803274
executed,command,org.eclipse.ui,3.7.0.v20110928-1505,"org.eclipse.ui.file.save",1381090809632
activated,view,org.eclipse.jdt.ui,3.7.2.v20120109-1427,"org.eclipse.jdt.ui.PackageExplorer",1381090813806
opened,editor,com.android.ide.eclipse.adt,22.2.1.v201309180102-833290,"com.android.ide.eclipse.editors.CommonXmlEditor",1381090813942
activated,editor,com.android.ide.eclipse.adt,22.2.1.v201309180102-833290,"com.android.ide.eclipse.editors.CommonXmlEditor",1381090814015
activated,view,org.eclipse.jdt.ui,3.7.2.v20120109-1427,"org.eclipse.jdt.ui.PackageExplorer",1381090814051
deactivated,workbench,org.eclipse.ui.workbench,3.7.1.v20120104-1859,"",1381090828294
activated,workbench,org.eclipse.ui.workbench,3.7.1.v20120104-1859,"",1381090839486
started,bundle,org.eclipse.compare,3.5.202.R37x_v20111109-0800,"org.eclipse.compare",1381090839574
deactivated,workbench,org.eclipse.ui.workbench,3.7.1.v20120104-1859,"",1381090844262
activated,workbench,org.eclipse.ui.workbench,3.7.1.v20120104-1859,"",1381090847888
deactivated,workbench,org.eclipse.ui.workbench,3.7.1.v20120104-1859,"",1381090847924
executed,command,org.eclipse.ui,3.7.0.v20110928-1505,"org.eclipse.ui.edit.paste",1381090847992
activated,workbench,org.eclipse.ui.workbench,3.7.1.v20120104-1859,"",1381090848013
deactivated,workbench,org.eclipse.ui.workbench,3.7.1.v20120104-1859,"",1381090854065
activated,workbench,org.eclipse.ui.workbench,3.7.1.v20120104-1859,"",1381090860733
executed,command,org.eclipse.ui,3.7.0.v20110928-1505,"org.eclipse.ui.edit.paste",1381090863644
deactivated,workbench,org.eclipse.ui.workbench,3.7.1.v20120104-1859,"",1381090866217
activated,workbench,org.eclipse.ui.workbench,3.7.1.v20120104-1859,"",1381090872024
executed,command,org.eclipse.ui,3.7.0.v20110928-1505,"org.eclipse.ui.edit.paste",1381090874808
deactivated,workbench,org.eclipse.ui.workbench,3.7.1.v20120104-1859,"",1381090877537
activated,workbench,org.eclipse.ui.workbench,3.7.1.v20120104-1859,"",1381090889077
executed,command,org.eclipse.ui,3.7.0.v20110928-1505,"org.eclipse.ui.edit.paste",1381090894083
started,bundle,com.android.ide.eclipse.ddms,22.2.1.v201309180102-833290,"com.android.ide.eclipse.ddms",1381090933913
executed,command,,,"com.android.ide.eclipse.adt.debug.launching.LaunchShortcut.run",1381090933949
started,bundle,com.android.ide.eclipse.traceview,22.2.1.v201309180102-833290,"com.android.ide.eclipse.traceview",1381090937013
deactivated,workbench,org.eclipse.ui.workbench,3.7.1.v20120104-1859,"",1381090937326
activated,workbench,org.eclipse.ui.workbench,3.7.1.v20120104-1859,"",1381090941006
opened,editor,com.android.ide.eclipse.adt,22.2.1.v201309180102-833290,"com.android.ide.eclipse.editors.CommonXmlEditor",1381090963470
activated,editor,com.android.ide.eclipse.adt,22.2.1.v201309180102-833290,"com.android.ide.eclipse.editors.CommonXmlEditor",1381090963543
activated,view,org.eclipse.jdt.ui,3.7.2.v20120109-1427,"org.eclipse.jdt.ui.PackageExplorer",1381090963590
activated,editor,com.android.ide.eclipse.adt,22.2.1.v201309180102-833290,"com.android.ide.eclipse.editors.CommonXmlEditor",1381090966667
executed,command,org.eclipse.ui,3.7.0.v20110928-1505,"org.eclipse.ui.file.save",1381090971868
activated,view,org.eclipse.jdt.ui,3.7.2.v20120109-1427,"org.eclipse.jdt.ui.PackageExplorer",1381090979696
executed,command,,,"com.android.ide.eclipse.adt.debug.launching.LaunchShortcut.run",1381090987430
deactivated,workbench,org.eclipse.ui.workbench,3.7.1.v20120104-1859,"",1381090987755
activated,workbench,org.eclipse.ui.workbench,3.7.1.v20120104-1859,"",1381090990643
deactivated,workbench,org.eclipse.ui.workbench,3.7.1.v20120104-1859,"",1381091002177
activated,workbench,org.eclipse.ui.workbench,3.7.1.v20120104-1859,"",1381091020727
activated,editor,com.android.ide.eclipse.adt,22.2.1.v201309180102-833290,"com.android.ide.eclipse.editors.CommonXmlEditor",1381091022048
executed,command,org.eclipse.ui,3.7.0.v20110928-1505,"org.eclipse.ui.file.save",1381091026314
deactivated,workbench,org.eclipse.ui.workbench,3.7.1.v20120104-1859,"",1381091037031
activated,workbench,org.eclipse.ui.workbench,3.7.1.v20120104-1859,"",1381091051596
deactivated,workbench,org.eclipse.ui.workbench,3.7.1.v20120104-1859,"",1381091055018
activated,workbench,org.eclipse.ui.workbench,3.7.1.v20120104-1859,"",1381091158170
deactivated,workbench,org.eclipse.ui.workbench,3.7.1.v20120104-1859,"",1381091161540
activated,workbench,org.eclipse.ui.workbench,3.7.1.v20120104-1859,"",1381091217957
executed,command,org.eclipse.ui,3.7.0.v20110928-1505,"org.eclipse.ui.file.save",1381091228234
activated,view,org.eclipse.jdt.ui,3.7.2.v20120109-1427,"org.eclipse.jdt.ui.PackageExplorer",1381091232270
executed,command,,,"com.android.ide.eclipse.adt.debug.launching.LaunchShortcut.run",1381091238208
deactivated,workbench,org.eclipse.ui.workbench,3.7.1.v20120104-1859,"",1381091238668
activated,workbench,org.eclipse.ui.workbench,3.7.1.v20120104-1859,"",1381091240710
deactivated,workbench,org.eclipse.ui.workbench,3.7.1.v20120104-1859,"",1381091244531
activated,workbench,org.eclipse.ui.workbench,3.7.1.v20120104-1859,"",1381091260192
activated,editor,com.android.ide.eclipse.adt,22.2.1.v201309180102-833290,"com.android.ide.eclipse.editors.CommonXmlEditor",1381091261773
executed,command,org.eclipse.ui,3.7.0.v20110928-1505,"org.eclipse.ui.file.save",1381091266430
activated,view,org.eclipse.jdt.ui,3.7.2.v20120109-1427,"org.eclipse.jdt.ui.PackageExplorer",1381091269993
executed,command,,,"com.android.ide.eclipse.adt.debug.launching.LaunchShortcut.run",1381091273240
deactivated,workbench,org.eclipse.ui.workbench,3.7.1.v20120104-1859,"",1381091273805
activated,workbench,org.eclipse.ui.workbench,3.7.1.v20120104-1859,"",1381091276749
opened,view,com.android.ide.eclipse.ddms,22.2.1.v201309180102-833290,"com.android.ide.eclipse.ddms.views.LogCatView",1381091292186
activated,view,com.android.ide.eclipse.ddms,22.2.1.v201309180102-833290,"com.android.ide.eclipse.ddms.views.LogCatView",1381091292222
deactivated,workbench,org.eclipse.ui.workbench,3.7.1.v20120104-1859,"",1381091315904
activated,workbench,org.eclipse.ui.workbench,3.7.1.v20120104-1859,"",1381091401012
activated,view,org.eclipse.jdt.ui,3.7.2.v20120109-1427,"org.eclipse.jdt.ui.PackageExplorer",1381091401037
deactivated,workbench,org.eclipse.ui.workbench,3.7.1.v20120104-1859,"",1381091404077
activated,workbench,org.eclipse.ui.workbench,3.7.1.v20120104-1859,"",1381091490054
activated,editor,com.android.ide.eclipse.adt,22.2.1.v201309180102-833290,"com.android.ide.eclipse.editors.CommonXmlEditor",1381091491469
executed,command,org.eclipse.ui,3.7.0.v20110928-1505,"org.eclipse.ui.file.save",1381091501411
activated,view,org.eclipse.jdt.ui,3.7.2.v20120109-1427,"org.eclipse.jdt.ui.PackageExplorer",1381091503566
executed,command,,,"com.android.ide.eclipse.adt.debug.launching.LaunchShortcut.run",1381091506604
deactivated,workbench,org.eclipse.ui.workbench,3.7.1.v20120104-1859,"",1381091507007
activated,workbench,org.eclipse.ui.workbench,3.7.1.v20120104-1859,"",1381091510137
activated,editor,com.android.ide.eclipse.adt,22.2.1.v201309180102-833290,"com.android.ide.eclipse.editors.CommonXmlEditor",1381091524550
executed,command,org.eclipse.ui,3.7.0.v20110928-1505,"org.eclipse.ui.file.save",1381091529990
deactivated,workbench,org.eclipse.ui.workbench,3.7.1.v20120104-1859,"",1381091536422
executed,command,org.eclipse.ui.ide,3.7.0.v20110928-1505,"org.eclipse.ui.project.cleanAction",1381091537927
activated,workbench,org.eclipse.ui.workbench,3.7.1.v20120104-1859,"",1381091537951
activated,view,org.eclipse.jdt.ui,3.7.2.v20120109-1427,"org.eclipse.jdt.ui.PackageExplorer",1381091547614
executed,command,,,"com.android.ide.eclipse.adt.debug.launching.LaunchShortcut.run",1381091552974
deactivated,workbench,org.eclipse.ui.workbench,3.7.1.v20120104-1859,"",1381091558120
activated,workbench,org.eclipse.ui.workbench,3.7.1.v20120104-1859,"",1381091560582
deactivated,workbench,org.eclipse.ui.workbench,3.7.1.v20120104-1859,"",1381091580990
activated,workbench,org.eclipse.ui.workbench,3.7.1.v20120104-1859,"",1381091584978
activated,editor,com.android.ide.eclipse.adt,22.2.1.v201309180102-833290,"com.android.ide.eclipse.editors.CommonXmlEditor",1381091592295
executed,command,org.eclipse.ui,3.7.0.v20110928-1505,"org.eclipse.ui.edit.copy",1381091598174
executed,command,org.eclipse.ui,3.7.0.v20110928-1505,"org.eclipse.ui.edit.paste",1381091601163
executed,command,org.eclipse.ui,3.7.0.v20110928-1505,"org.eclipse.ui.edit.undo",1381091604654
executed,command,org.eclipse.ui,3.7.0.v20110928-1505,"org.eclipse.ui.edit.copy",1381091609348
executed,command,org.eclipse.ui,3.7.0.v20110928-1505,"org.eclipse.ui.edit.paste",1381091611795
executed,command,org.eclipse.ui,3.7.0.v20110928-1505,"org.eclipse.ui.edit.paste",1381091613597
deactivated,workbench,org.eclipse.ui.workbench,3.7.1.v20120104-1859,"",1381091659005
activated,workbench,org.eclipse.ui.workbench,3.7.1.v20120104-1859,"",1381091671528
activated,view,org.eclipse.jdt.ui,3.7.2.v20120109-1427,"org.eclipse.jdt.ui.PackageExplorer",1381091671560
executed,command,org.eclipse.ui,3.7.0.v20110928-1505,"org.eclipse.ui.edit.paste",1381091675144
deactivated,workbench,org.eclipse.ui.workbench,3.7.1.v20120104-1859,"",1381091684658
activated,workbench,org.eclipse.ui.workbench,3.7.1.v20120104-1859,"",1381091690216
executed,command,org.eclipse.ui,3.7.0.v20110928-1505,"org.eclipse.ui.edit.paste",1381091691199
deactivated,workbench,org.eclipse.ui.workbench,3.7.1.v20120104-1859,"",1381091696088
activated,workbench,org.eclipse.ui.workbench,3.7.1.v20120104-1859,"",1381091701397
executed,command,org.eclipse.ui,3.7.0.v20110928-1505,"org.eclipse.ui.edit.paste",1381091701748
deactivated,workbench,org.eclipse.ui.workbench,3.7.1.v20120104-1859,"",1381091703327
activated,workbench,org.eclipse.ui.workbench,3.7.1.v20120104-1859,"",1381091708394
executed,command,org.eclipse.ui,3.7.0.v20110928-1505,"org.eclipse.ui.edit.paste",1381091708743
deactivated,workbench,org.eclipse.ui.workbench,3.7.1.v20120104-1859,"",1381091709922
activated,workbench,org.eclipse.ui.workbench,3.7.1.v20120104-1859,"",1381091716954
executed,command,org.eclipse.ui,3.7.0.v20110928-1505,"org.eclipse.ui.edit.paste",1381091717538
deactivated,workbench,org.eclipse.ui.workbench,3.7.1.v20120104-1859,"",1381091718489
activated,workbench,org.eclipse.ui.workbench,3.7.1.v20120104-1859,"",1381091726118
executed,command,org.eclipse.ui,3.7.0.v20110928-1505,"org.eclipse.ui.edit.paste",1381091726951
deactivated,workbench,org.eclipse.ui.workbench,3.7.1.v20120104-1859,"",1381091728211
activated,workbench,org.eclipse.ui.workbench,3.7.1.v20120104-1859,"",1381091735855
executed,command,org.eclipse.ui,3.7.0.v20110928-1505,"org.eclipse.ui.edit.paste",1381091736615
deactivated,workbench,org.eclipse.ui.workbench,3.7.1.v20120104-1859,"",1381091738169
activated,workbench,org.eclipse.ui.workbench,3.7.1.v20120104-1859,"",1381091743871
executed,command,org.eclipse.ui,3.7.0.v20110928-1505,"org.eclipse.ui.edit.paste",1381091744480
executed,command,org.eclipse.ui,3.7.0.v20110928-1505,"org.eclipse.ui.file.save",1381091755566
activated,editor,com.android.ide.eclipse.adt,22.2.1.v201309180102-833290,"com.android.ide.eclipse.editors.CommonXmlEditor",1381091763648
activated,view,org.eclipse.jdt.ui,3.7.2.v20120109-1427,"org.eclipse.jdt.ui.PackageExplorer",1381091763680
activated,editor,com.android.ide.eclipse.adt,22.2.1.v201309180102-833290,"com.android.ide.eclipse.editors.CommonXmlEditor",1381091765987
executed,command,org.eclipse.ui,3.7.0.v20110928-1505,"org.eclipse.ui.edit.copy",1381091768862
executed,command,org.eclipse.ui,3.7.0.v20110928-1505,"org.eclipse.ui.edit.paste",1381091770706
executed,command,org.eclipse.ui,3.7.0.v20110928-1505,"org.eclipse.ui.edit.paste",1381091772575
executed,command,org.eclipse.ui,3.7.0.v20110928-1505,"org.eclipse.ui.file.save",1381091793750
activated,view,org.eclipse.jdt.ui,3.7.2.v20120109-1427,"org.eclipse.jdt.ui.PackageExplorer",1381091798582
deactivated,workbench,org.eclipse.ui.workbench,3.7.1.v20120104-1859,"",1381091800488
activated,workbench,org.eclipse.ui.workbench,3.7.1.v20120104-1859,"",1381091837031
activated,editor,com.android.ide.eclipse.adt,22.2.1.v201309180102-833290,"com.android.ide.eclipse.editors.CommonXmlEditor",1381091843998
activated,view,org.eclipse.jdt.ui,3.7.2.v20120109-1427,"org.eclipse.jdt.ui.PackageExplorer",1381091844031
activated,editor,com.android.ide.eclipse.adt,22.2.1.v201309180102-833290,"com.android.ide.eclipse.editors.CommonXmlEditor",1381091848359
deactivated,workbench,org.eclipse.ui.workbench,3.7.1.v20120104-1859,"",1381091849440
activated,workbench,org.eclipse.ui.workbench,3.7.1.v20120104-1859,"",1381091851686
closed,editor,com.android.ide.eclipse.adt,22.2.1.v201309180102-833290,"com.android.ide.eclipse.editors.CommonXmlEditor",1381091854047
executed,command,org.eclipse.ui,3.7.0.v20110928-1505,"org.eclipse.ui.edit.copy",1381091889902
executed,command,org.eclipse.ui,3.7.0.v20110928-1505,"org.eclipse.ui.edit.paste",1381091901170
executed,command,org.eclipse.ui,3.7.0.v20110928-1505,"org.eclipse.ui.file.save",1381091904292
executed,command,org.eclipse.ui,3.7.0.v20110928-1505,"org.eclipse.ui.file.save",1381091909661
executed,command,org.eclipse.ui,3.7.0.v20110928-1505,"org.eclipse.ui.file.save",1381091917256
