what,kind,bundleId,bundleVersion,description,time
executed,command,org.eclipse.ui,3.7.0.v20110928-1505,"org.eclipse.ui.edit.delete",1380875133325
executed,command,org.eclipse.ui,3.7.0.v20110928-1505,"org.eclipse.ui.edit.delete",1380875133496
executed,command,org.eclipse.ui,3.7.0.v20110928-1505,"org.eclipse.ui.edit.delete",1380875133764
executed,command,org.eclipse.ui,3.7.0.v20110928-1505,"org.eclipse.ui.file.save",1380875165065
executed,command,org.eclipse.ui,3.7.0.v20110928-1505,"org.eclipse.ui.file.save",1380875171017
deactivated,workbench,org.eclipse.ui.workbench,3.7.1.v20120104-1859,"",1380875172388
activated,workbench,org.eclipse.ui.workbench,3.7.1.v20120104-1859,"",1380875191729
activated,view,org.eclipse.jdt.ui,3.7.2.v20120109-1427,"org.eclipse.jdt.ui.PackageExplorer",1380875201110
deactivated,workbench,org.eclipse.ui.workbench,3.7.1.v20120104-1859,"",1380875209655
activated,workbench,org.eclipse.ui.workbench,3.7.1.v20120104-1859,"",1380875355273
deactivated,workbench,org.eclipse.ui.workbench,3.7.1.v20120104-1859,"",1380875372446
activated,workbench,org.eclipse.ui.workbench,3.7.1.v20120104-1859,"",1380875381143
deactivated,workbench,org.eclipse.ui.workbench,3.7.1.v20120104-1859,"",1380875382446
activated,workbench,org.eclipse.ui.workbench,3.7.1.v20120104-1859,"",1380875423708
deactivated,workbench,org.eclipse.ui.workbench,3.7.1.v20120104-1859,"",1380875424855
activated,workbench,org.eclipse.ui.workbench,3.7.1.v20120104-1859,"",1380875447948
started,bundle,org.eclipse.compare,3.5.202.R37x_v20111109-0800,"org.eclipse.compare",1380875453904
executed,command,org.eclipse.ui,3.7.0.v20110928-1505,"org.eclipse.ui.edit.paste",1380875456533
deactivated,workbench,org.eclipse.ui.workbench,3.7.1.v20120104-1859,"",1380875470891
executed,command,org.eclipse.ui.ide,3.7.0.v20110928-1505,"org.eclipse.ui.project.cleanAction",1380875472997
activated,workbench,org.eclipse.ui.workbench,3.7.1.v20120104-1859,"",1380875473014
activated,editor,com.android.ide.eclipse.adt,22.2.1.v201309180102-833290,"com.android.ide.eclipse.editors.CommonXmlEditor",1380875480244
activated,view,org.eclipse.jdt.ui,3.7.2.v20120109-1427,"org.eclipse.jdt.ui.PackageExplorer",1380875480271
activated,editor,com.android.ide.eclipse.adt,22.2.1.v201309180102-833290,"com.android.ide.eclipse.editors.CommonXmlEditor",1380875493499
activated,editor,com.android.ide.eclipse.adt,22.2.1.v201309180102-833290,"com.android.ide.eclipse.editors.CommonXmlEditor",1380875501581
executed,command,org.eclipse.ui,3.7.0.v20110928-1505,"org.eclipse.ui.file.save",1380875517410
deactivated,workbench,org.eclipse.ui.workbench,3.7.1.v20120104-1859,"",1380875527323
activated,workbench,org.eclipse.ui.workbench,3.7.1.v20120104-1859,"",1380875601356
activated,view,org.eclipse.jdt.ui,3.7.2.v20120109-1427,"org.eclipse.jdt.ui.PackageExplorer",1380875604717
opened,editor,org.eclipse.jdt.ui,3.7.2.v20120109-1427,"org.eclipse.jdt.ui.CompilationUnitEditor",1380875609461
started,bundle,org.eclipse.jdt.debug,3.7.1.v20111006_r372,"org.eclipse.jdt.debug",1380875609614
started,bundle,org.eclipse.jdt.debug.ui,3.6.1.v20111006_r372,"org.eclipse.jdt.debug.ui",1380875609658
activated,editor,org.eclipse.jdt.ui,3.7.2.v20120109-1427,"org.eclipse.jdt.ui.CompilationUnitEditor",1380875609689
activated,view,org.eclipse.jdt.ui,3.7.2.v20120109-1427,"org.eclipse.jdt.ui.PackageExplorer",1380875609759
activated,editor,com.android.ide.eclipse.adt,22.2.1.v201309180102-833290,"com.android.ide.eclipse.editors.CommonXmlEditor",1380875613108
activated,editor,com.android.ide.eclipse.adt,22.2.1.v201309180102-833290,"com.android.ide.eclipse.editors.CommonXmlEditor",1380875615416
activated,editor,com.android.ide.eclipse.adt,22.2.1.v201309180102-833290,"com.android.ide.eclipse.editors.CommonXmlEditor",1380875618331
closed,editor,com.android.ide.eclipse.adt,22.2.1.v201309180102-833290,"com.android.ide.eclipse.editors.CommonXmlEditor",1380875618332
activated,editor,org.eclipse.jdt.ui,3.7.2.v20120109-1427,"org.eclipse.jdt.ui.CompilationUnitEditor",1380875619778
deactivated,workbench,org.eclipse.ui.workbench,3.7.1.v20120104-1859,"",1380875659782
activated,workbench,org.eclipse.ui.workbench,3.7.1.v20120104-1859,"",1380875684807
started,bundle,org.eclipse.jdt.junit,3.7.0.v20110928-1453,"org.eclipse.jdt.junit",1380875702946
deactivated,workbench,org.eclipse.ui.workbench,3.7.1.v20120104-1859,"",1380875734664
activated,workbench,org.eclipse.ui.workbench,3.7.1.v20120104-1859,"",1380875737446
executed,command,org.eclipse.jdt.ui,3.7.2.v20120109-1427,"org.eclipse.jdt.ui.edit.text.java.organize.imports",1380875752979
deactivated,workbench,org.eclipse.ui.workbench,3.7.1.v20120104-1859,"",1380875779575
activated,workbench,org.eclipse.ui.workbench,3.7.1.v20120104-1859,"",1380875790556
deactivated,workbench,org.eclipse.ui.workbench,3.7.1.v20120104-1859,"",1380875811133
activated,workbench,org.eclipse.ui.workbench,3.7.1.v20120104-1859,"",1380875815895
deactivated,workbench,org.eclipse.ui.workbench,3.7.1.v20120104-1859,"",1380875831646
activated,workbench,org.eclipse.ui.workbench,3.7.1.v20120104-1859,"",1380875834173
deactivated,workbench,org.eclipse.ui.workbench,3.7.1.v20120104-1859,"",1380875841139
activated,workbench,org.eclipse.ui.workbench,3.7.1.v20120104-1859,"",1380875842740
executed,command,org.eclipse.jdt.ui,3.7.2.v20120109-1427,"org.eclipse.jdt.ui.edit.text.java.organize.imports",1380875848114
deactivated,workbench,org.eclipse.ui.workbench,3.7.1.v20120104-1859,"",1380875850808
activated,workbench,org.eclipse.ui.workbench,3.7.1.v20120104-1859,"",1380875856728
started,bundle,org.eclipse.mylyn.ide.ui,3.6.0.v20110608-1400,"org.eclipse.mylyn.ide.ui",1380875861265
started,bundle,org.eclipse.mylyn.java.ui,3.6.0.v20110608-1400,"org.eclipse.mylyn.java.ui",1380875861277
deactivated,workbench,org.eclipse.ui.workbench,3.7.1.v20120104-1859,"",1380875872124
activated,workbench,org.eclipse.ui.workbench,3.7.1.v20120104-1859,"",1380875874091
activated,view,org.eclipse.jdt.ui,3.7.2.v20120109-1427,"org.eclipse.jdt.ui.PackageExplorer",1380875888644
deactivated,workbench,org.eclipse.ui.workbench,3.7.1.v20120104-1859,"",1380875896631
activated,workbench,org.eclipse.ui.workbench,3.7.1.v20120104-1859,"",1380875901660
activated,editor,org.eclipse.jdt.ui,3.7.2.v20120109-1427,"org.eclipse.jdt.ui.CompilationUnitEditor",1380875903075
deactivated,workbench,org.eclipse.ui.workbench,3.7.1.v20120104-1859,"",1380875908955
activated,workbench,org.eclipse.ui.workbench,3.7.1.v20120104-1859,"",1380875911365
deactivated,workbench,org.eclipse.ui.workbench,3.7.1.v20120104-1859,"",1380875921806
activated,workbench,org.eclipse.ui.workbench,3.7.1.v20120104-1859,"",1380875923530
executed,command,org.eclipse.ui,3.7.0.v20110928-1505,"org.eclipse.ui.file.save",1380875933205
deactivated,workbench,org.eclipse.ui.workbench,3.7.1.v20120104-1859,"",1380875941310
activated,workbench,org.eclipse.ui.workbench,3.7.1.v20120104-1859,"",1380875975698
activated,view,org.eclipse.jdt.ui,3.7.2.v20120109-1427,"org.eclipse.jdt.ui.PackageExplorer",1380875984599
started,bundle,org.eclipse.jdt.junit.core,3.7.0.v20110928-1453,"org.eclipse.jdt.junit.core",1380875987612
started,bundle,com.android.ide.eclipse.ddms,22.2.1.v201309180102-833290,"com.android.ide.eclipse.ddms",1380875988866
executed,command,,,"com.android.ide.eclipse.adt.debug.launching.LaunchShortcut.run",1380875988880
started,bundle,com.android.ide.eclipse.traceview,22.2.1.v201309180102-833290,"com.android.ide.eclipse.traceview",1380875991948
deactivated,workbench,org.eclipse.ui.workbench,3.7.1.v20120104-1859,"",1380875994325
activated,workbench,org.eclipse.ui.workbench,3.7.1.v20120104-1859,"",1380875996998
activated,editor,org.eclipse.jdt.ui,3.7.2.v20120109-1427,"org.eclipse.jdt.ui.CompilationUnitEditor",1380876088641
deactivated,workbench,org.eclipse.ui.workbench,3.7.1.v20120104-1859,"",1380876098492
activated,workbench,org.eclipse.ui.workbench,3.7.1.v20120104-1859,"",1380876145527
executed,command,org.eclipse.ui,3.7.0.v20110928-1505,"org.eclipse.ui.edit.copy",1380876162946
activated,view,org.eclipse.jdt.ui,3.7.2.v20120109-1427,"org.eclipse.jdt.ui.PackageExplorer",1380876177283
opened,editor,org.eclipse.jdt.ui,3.7.2.v20120109-1427,"org.eclipse.jdt.ui.CompilationUnitEditor",1380876177413
activated,editor,org.eclipse.jdt.ui,3.7.2.v20120109-1427,"org.eclipse.jdt.ui.CompilationUnitEditor",1380876177506
activated,view,org.eclipse.jdt.ui,3.7.2.v20120109-1427,"org.eclipse.jdt.ui.PackageExplorer",1380876177529
activated,editor,org.eclipse.jdt.ui,3.7.2.v20120109-1427,"org.eclipse.jdt.ui.CompilationUnitEditor",1380876183868
executed,command,org.eclipse.ui,3.7.0.v20110928-1505,"org.eclipse.ui.edit.paste",1380876185833
executed,command,org.eclipse.ui,3.7.0.v20110928-1505,"org.eclipse.ui.edit.copy",1380876200574
executed,command,org.eclipse.ui,3.7.0.v20110928-1505,"org.eclipse.ui.edit.paste",1380876205236
executed,command,org.eclipse.ui,3.7.0.v20110928-1505,"org.eclipse.ui.edit.copy",1380876224300
executed,command,org.eclipse.ui,3.7.0.v20110928-1505,"org.eclipse.ui.edit.paste",1380876227375
executed,command,org.eclipse.ui,3.7.0.v20110928-1505,"org.eclipse.ui.file.save",1380876259604
activated,view,org.eclipse.jdt.ui,3.7.2.v20120109-1427,"org.eclipse.jdt.ui.PackageExplorer",1380876263435
executed,command,,,"com.android.ide.eclipse.adt.debug.launching.LaunchShortcut.run",1380876266484
deactivated,workbench,org.eclipse.ui.workbench,3.7.1.v20120104-1859,"",1380876266935
activated,workbench,org.eclipse.ui.workbench,3.7.1.v20120104-1859,"",1380876270710
deactivated,workbench,org.eclipse.ui.workbench,3.7.1.v20120104-1859,"",1380876295952
activated,workbench,org.eclipse.ui.workbench,3.7.1.v20120104-1859,"",1380876357615
activated,editor,org.eclipse.jdt.ui,3.7.2.v20120109-1427,"org.eclipse.jdt.ui.CompilationUnitEditor",1380876364516
deactivated,workbench,org.eclipse.ui.workbench,3.7.1.v20120104-1859,"",1380876389609
activated,workbench,org.eclipse.ui.workbench,3.7.1.v20120104-1859,"",1380876392018
deactivated,workbench,org.eclipse.ui.workbench,3.7.1.v20120104-1859,"",1380876400390
activated,workbench,org.eclipse.ui.workbench,3.7.1.v20120104-1859,"",1380876403009
deactivated,workbench,org.eclipse.ui.workbench,3.7.1.v20120104-1859,"",1380876418772
activated,workbench,org.eclipse.ui.workbench,3.7.1.v20120104-1859,"",1380876422529
deactivated,workbench,org.eclipse.ui.workbench,3.7.1.v20120104-1859,"",1380876434405
activated,workbench,org.eclipse.ui.workbench,3.7.1.v20120104-1859,"",1380876436755
deactivated,workbench,org.eclipse.ui.workbench,3.7.1.v20120104-1859,"",1380876451529
activated,workbench,org.eclipse.ui.workbench,3.7.1.v20120104-1859,"",1380876457319
deactivated,workbench,org.eclipse.ui.workbench,3.7.1.v20120104-1859,"",1380876474592
activated,workbench,org.eclipse.ui.workbench,3.7.1.v20120104-1859,"",1380876480078
deactivated,workbench,org.eclipse.ui.workbench,3.7.1.v20120104-1859,"",1380876499524
activated,workbench,org.eclipse.ui.workbench,3.7.1.v20120104-1859,"",1380876505101
deactivated,workbench,org.eclipse.ui.workbench,3.7.1.v20120104-1859,"",1380876518225
activated,workbench,org.eclipse.ui.workbench,3.7.1.v20120104-1859,"",1380876521540
deactivated,workbench,org.eclipse.ui.workbench,3.7.1.v20120104-1859,"",1380876537360
activated,workbench,org.eclipse.ui.workbench,3.7.1.v20120104-1859,"",1380876545623
deactivated,workbench,org.eclipse.ui.workbench,3.7.1.v20120104-1859,"",1380876566775
activated,workbench,org.eclipse.ui.workbench,3.7.1.v20120104-1859,"",1380876573756
deactivated,workbench,org.eclipse.ui.workbench,3.7.1.v20120104-1859,"",1380876604177
activated,workbench,org.eclipse.ui.workbench,3.7.1.v20120104-1859,"",1380876606906
executed,command,org.eclipse.jdt.ui,3.7.2.v20120109-1427,"org.eclipse.jdt.ui.edit.text.java.organize.imports",1380876622897
executed,command,org.eclipse.jdt.ui,3.7.2.v20120109-1427,"org.eclipse.jdt.ui.edit.text.java.organize.imports",1380876628130
deactivated,workbench,org.eclipse.ui.workbench,3.7.1.v20120104-1859,"",1380876635881
activated,workbench,org.eclipse.ui.workbench,3.7.1.v20120104-1859,"",1380876640734
executed,command,org.eclipse.jdt.ui,3.7.2.v20120109-1427,"org.eclipse.jdt.ui.edit.text.java.organize.imports",1380876648955
executed,command,org.eclipse.ui,3.7.0.v20110928-1505,"org.eclipse.ui.file.save",1380876654190
deactivated,workbench,org.eclipse.ui.workbench,3.7.1.v20120104-1859,"",1380876667248
activated,workbench,org.eclipse.ui.workbench,3.7.1.v20120104-1859,"",1380877448515
deactivated,workbench,org.eclipse.ui.workbench,3.7.1.v20120104-1859,"",1380877451881
activated,workbench,org.eclipse.ui.workbench,3.7.1.v20120104-1859,"",1380877454895
deactivated,workbench,org.eclipse.ui.workbench,3.7.1.v20120104-1859,"",1380877501500
activated,workbench,org.eclipse.ui.workbench,3.7.1.v20120104-1859,"",1380877504791
deactivated,workbench,org.eclipse.ui.workbench,3.7.1.v20120104-1859,"",1380877512158
activated,workbench,org.eclipse.ui.workbench,3.7.1.v20120104-1859,"",1380877521510
executed,command,org.eclipse.ui,3.7.0.v20110928-1505,"org.eclipse.ui.edit.paste",1380877522931
executed,command,org.eclipse.ui,3.7.0.v20110928-1505,"org.eclipse.ui.file.save",1380877535223
started,bundle,com.android.ide.eclipse.ndk,22.2.1.v201309180102-833290,"com.android.ide.eclipse.ndk",1380877542658
deactivated,workbench,org.eclipse.ui.workbench,3.7.1.v20120104-1859,"",1380877543964
activated,workbench,org.eclipse.ui.workbench,3.7.1.v20120104-1859,"",1380877678426
deactivated,workbench,org.eclipse.ui.workbench,3.7.1.v20120104-1859,"",1380877706121
activated,workbench,org.eclipse.ui.workbench,3.7.1.v20120104-1859,"",1380877711410
executed,command,org.eclipse.ui,3.7.0.v20110928-1505,"org.eclipse.ui.edit.paste",1380877722587
deactivated,workbench,org.eclipse.ui.workbench,3.7.1.v20120104-1859,"",1380877728237
executed,command,org.eclipse.jdt.ui,3.7.2.v20120109-1427,"org.eclipse.jdt.ui.edit.text.java.organize.imports",1380877732853
activated,workbench,org.eclipse.ui.workbench,3.7.1.v20120104-1859,"",1380877732872
deactivated,workbench,org.eclipse.ui.workbench,3.7.1.v20120104-1859,"",1380877735162
executed,command,org.eclipse.jdt.ui,3.7.2.v20120109-1427,"org.eclipse.jdt.ui.edit.text.java.organize.imports",1380877747623
activated,workbench,org.eclipse.ui.workbench,3.7.1.v20120104-1859,"",1380877747647
activated,perspective,org.eclipse.jdt.ui,,"org.eclipse.jdt.ui.JavaPerspective",1380890928793
started,bundle,org.eclipse.osgi,3.7.2.v20120110-1415,"org.eclipse.osgi",1380890928795
started,bundle,org.eclipse.equinox.simpleconfigurator,1.0.200.v20110815-1438,"org.eclipse.equinox.simpleconfigurator",1380890928795
started,bundle,com.ibm.icu,4.4.2.v20110823,"com.ibm.icu",1380890928796
started,bundle,org.eclipse.compare.core,3.5.200.I20110208-0800,"org.eclipse.compare.core",1380890928796
started,bundle,org.eclipse.core.contenttype,3.4.100.v20110423-0524,"org.eclipse.core.contenttype",1380890928797
started,bundle,org.eclipse.core.databinding.observable,1.4.0.I20110222-0800,"org.eclipse.core.databinding.observable",1380890928797
started,bundle,org.eclipse.core.expressions,3.4.300.v20110228,"org.eclipse.core.expressions",1380890928798
started,bundle,org.eclipse.core.filebuffers,3.5.200.v20110928-1504,"org.eclipse.core.filebuffers",1380890928798
started,bundle,org.eclipse.core.filesystem,1.3.100.v20110423-0524,"org.eclipse.core.filesystem",1380890928799
started,bundle,org.eclipse.core.jobs,3.5.101.v20120113-1953,"org.eclipse.core.jobs",1380890928799
started,bundle,org.eclipse.core.net,1.2.100.I20110511-0800,"org.eclipse.core.net",1380890928800
started,bundle,org.eclipse.core.resources,3.7.101.v20120125-1505,"org.eclipse.core.resources",1380890928801
started,bundle,org.eclipse.core.runtime,3.7.0.v20110110,"org.eclipse.core.runtime",1380890928813
started,bundle,org.eclipse.core.runtime.compatibility,3.2.100.v20100505,"org.eclipse.core.runtime.compatibility",1380890928814
started,bundle,org.eclipse.core.runtime.compatibility.auth,3.2.200.v20110110,"org.eclipse.core.runtime.compatibility.auth",1380890928814
started,bundle,org.eclipse.core.variables,3.2.500.v20110928-1503,"org.eclipse.core.variables",1380890928815
started,bundle,org.eclipse.debug.core,3.7.1.v20111129-2031,"org.eclipse.debug.core",1380890928815
started,bundle,org.eclipse.debug.ui,3.7.102.v20111129-1423_r372,"org.eclipse.debug.ui",1380890928817
started,bundle,org.eclipse.egit.core,1.3.0.201202151440-r,"org.eclipse.egit.core",1380890928817
started,bundle,org.eclipse.egit.ui,1.3.0.201202151440-r,"org.eclipse.egit.ui",1380890928819
started,bundle,org.eclipse.emf.common,2.7.0.v20120127-1122,"org.eclipse.emf.common",1380890928819
started,bundle,org.eclipse.epp.mpc.ui,1.1.1.I20110907-0947,"org.eclipse.epp.mpc.ui",1380890928820
started,bundle,org.eclipse.epp.usagedata.gathering,1.3.1.R201106061540,"org.eclipse.epp.usagedata.gathering",1380890928820
started,bundle,org.eclipse.epp.usagedata.recording,1.3.1.R201106061540,"org.eclipse.epp.usagedata.recording",1380890928821
started,bundle,org.eclipse.equinox.app,1.3.100.v20110321,"org.eclipse.equinox.app",1380890928821
started,bundle,org.eclipse.equinox.common,3.6.0.v20110523,"org.eclipse.equinox.common",1380890928821
started,bundle,org.eclipse.equinox.ds,1.3.1.R37x_v20110701,"org.eclipse.equinox.ds",1380890928822
started,bundle,org.eclipse.equinox.event,1.2.100.v20110502,"org.eclipse.equinox.event",1380890928822
started,bundle,org.eclipse.equinox.p2.core,2.1.1.v20120113-1346,"org.eclipse.equinox.p2.core",1380890928823
started,bundle,org.eclipse.equinox.p2.directorywatcher,1.0.300.v20110815-1419,"org.eclipse.equinox.p2.directorywatcher",1380890928823
started,bundle,org.eclipse.equinox.p2.engine,2.1.1.R37x_v20111003,"org.eclipse.equinox.p2.engine",1380890928824
started,bundle,org.eclipse.equinox.p2.metadata,2.1.0.v20110815-1419,"org.eclipse.equinox.p2.metadata",1380890928824
started,bundle,org.eclipse.equinox.p2.metadata.repository,1.2.0.v20110815-1419,"org.eclipse.equinox.p2.metadata.repository",1380890928824
started,bundle,org.eclipse.equinox.p2.operations,2.1.1.R37x_v20111111,"org.eclipse.equinox.p2.operations",1380890928825
started,bundle,org.eclipse.equinox.p2.reconciler.dropins,1.1.100.v20110815-1419,"org.eclipse.equinox.p2.reconciler.dropins",1380890928838
started,bundle,org.eclipse.equinox.p2.repository,2.1.1.v20120113-1346,"org.eclipse.equinox.p2.repository",1380890928838
started,bundle,org.eclipse.equinox.p2.ui.sdk.scheduler,1.0.100.v20110815-1419,"org.eclipse.equinox.p2.ui.sdk.scheduler",1380890928838
started,bundle,org.eclipse.equinox.p2.updatechecker,1.1.200.v20110815-1419,"org.eclipse.equinox.p2.updatechecker",1380890928839
started,bundle,org.eclipse.equinox.preferences,3.4.2.v20120111-2020,"org.eclipse.equinox.preferences",1380890928839
started,bundle,org.eclipse.equinox.registry,3.5.101.R37x_v20110810-1611,"org.eclipse.equinox.registry",1380890928840
started,bundle,org.eclipse.equinox.security,1.1.1.R37x_v20110822-1018,"org.eclipse.equinox.security",1380890928840
started,bundle,org.eclipse.equinox.util,1.0.300.v20110502,"org.eclipse.equinox.util",1380890928841
started,bundle,org.eclipse.help,3.5.100.v20110426,"org.eclipse.help",1380890928841
started,bundle,org.eclipse.jdt.core,3.7.3.v20120119-1537,"org.eclipse.jdt.core",1380890928842
started,bundle,org.eclipse.jdt.core.manipulation,1.4.0.v20110928-1453,"org.eclipse.jdt.core.manipulation",1380890928842
started,bundle,org.eclipse.jdt.launching,3.6.1.v20111006_r372,"org.eclipse.jdt.launching",1380890928843
started,bundle,org.eclipse.jdt.ui,3.7.2.v20120109-1427,"org.eclipse.jdt.ui",1380890928846
started,bundle,org.eclipse.jface,3.7.0.v20110928-1505,"org.eclipse.jface",1380890928847
started,bundle,org.eclipse.jgit,1.3.0.201202151440-r,"org.eclipse.jgit",1380890928847
started,bundle,org.eclipse.jsch.core,1.1.300.I20110514-0800,"org.eclipse.jsch.core",1380890928847
started,bundle,org.eclipse.ltk.core.refactoring,3.5.201.r372_v20111101-0700,"org.eclipse.ltk.core.refactoring",1380890928848
started,bundle,org.eclipse.ltk.ui.refactoring,3.6.0.v20110928-1453,"org.eclipse.ltk.ui.refactoring",1380890928849
started,bundle,org.eclipse.m2e.editor.xml,1.0.200.20111228-1245,"org.eclipse.m2e.editor.xml",1380890928850
started,bundle,org.eclipse.m2e.logback.configuration,1.0.200.20111228-1245,"org.eclipse.m2e.logback.configuration",1380890928850
started,bundle,org.eclipse.mylyn.bugzilla.core,3.6.5.v20120123-0100,"org.eclipse.mylyn.bugzilla.core",1380890928851
started,bundle,org.eclipse.mylyn.bugzilla.ui,3.6.0.v20110608-1400,"org.eclipse.mylyn.bugzilla.ui",1380890928852
started,bundle,org.eclipse.mylyn.commons.identity,0.8.0.v20110608-1400,"org.eclipse.mylyn.commons.identity",1380890928852
started,bundle,org.eclipse.mylyn.commons.net,3.6.0.v20110608-1400,"org.eclipse.mylyn.commons.net",1380890928852
started,bundle,org.eclipse.mylyn.commons.ui,3.6.1.v20110720-0100,"org.eclipse.mylyn.commons.ui",1380890928853
started,bundle,org.eclipse.mylyn.context.core,3.6.1.v20110720-0100,"org.eclipse.mylyn.context.core",1380890928853
started,bundle,org.eclipse.mylyn.context.ui,3.6.1.v20120112-0100,"org.eclipse.mylyn.context.ui",1380890928854
started,bundle,org.eclipse.mylyn.monitor.ui,3.6.0.v20110608-1400,"org.eclipse.mylyn.monitor.ui",1380890928855
started,bundle,org.eclipse.mylyn.tasks.ui,3.6.5.v20120215-0100,"org.eclipse.mylyn.tasks.ui",1380890928856
started,bundle,org.eclipse.mylyn.team.ui,3.6.1.v20110825-0100,"org.eclipse.mylyn.team.ui",1380890928856
started,bundle,org.eclipse.search,3.7.0.v20110928-1504,"org.eclipse.search",1380890928857
started,bundle,org.eclipse.team.core,3.6.0.I20110525-0800,"org.eclipse.team.core",1380890928857
started,bundle,org.eclipse.team.cvs.core,3.3.400.I20110510-0800,"org.eclipse.team.cvs.core",1380890928858
started,bundle,org.eclipse.team.cvs.ui,3.3.401.v20120126-1227,"org.eclipse.team.cvs.ui",1380890928859
started,bundle,org.eclipse.team.ui,3.6.101.R37x_v20111109-0800,"org.eclipse.team.ui",1380890928860
started,bundle,org.eclipse.ui,3.7.0.v20110928-1505,"org.eclipse.ui",1380890928862
started,bundle,org.eclipse.ui.console,3.5.100.v20111007_r372,"org.eclipse.ui.console",1380890928862
started,bundle,org.eclipse.ui.editors,3.7.0.v20110928-1504,"org.eclipse.ui.editors",1380890928862
started,bundle,org.eclipse.ui.forms,3.5.101.v20111011-1919,"org.eclipse.ui.forms",1380890928863
started,bundle,org.eclipse.ui.ide,3.7.0.v20110928-1505,"org.eclipse.ui.ide",1380890928864
started,bundle,org.eclipse.ui.net,1.2.100.v20111208-1155,"org.eclipse.ui.net",1380890928865
started,bundle,org.eclipse.ui.views,3.6.0.v20110928-1505,"org.eclipse.ui.views",1380890928866
started,bundle,org.eclipse.ui.workbench,3.7.1.v20120104-1859,"org.eclipse.ui.workbench",1380890928866
started,bundle,org.eclipse.ui.workbench.texteditor,3.7.0.v20110928-1504,"org.eclipse.ui.workbench.texteditor",1380890928867
started,bundle,org.eclipse.update.configurator,3.3.100.v20100512,"org.eclipse.update.configurator",1380890928868
started,bundle,org.eclipse.update.core,3.2.500.v20110330,"org.eclipse.update.core",1380890928868
started,bundle,org.eclipse.update.scheduler,3.2.300.v20100512,"org.eclipse.update.scheduler",1380890928869
started,bundle,org.eclipse.wb.discovery.core,1.3.0.r37x201202052340,"org.eclipse.wb.discovery.core",1380890928869
started,bundle,org.eclipse.wst.common.frameworks,1.2.102.v201201190400,"org.eclipse.wst.common.frameworks",1380890928870
started,bundle,org.eclipse.wst.common.project.facet.core,1.4.201.v201201101553,"org.eclipse.wst.common.project.facet.core",1380890928870
started,bundle,org.eclipse.wst.common.uriresolver,1.1.401.v201004280700,"org.eclipse.wst.common.uriresolver",1380890928871
started,bundle,org.eclipse.wst.dtd.ui,1.0.600.v201103171359,"org.eclipse.wst.dtd.ui",1380890928872
started,bundle,org.eclipse.wst.internet.cache,1.0.400.v201004280700,"org.eclipse.wst.internet.cache",1380890928872
started,bundle,org.eclipse.wst.sse.core,1.1.602.v201112071516,"org.eclipse.wst.sse.core",1380890928873
started,bundle,org.eclipse.wst.sse.ui,1.3.2.v201201041522,"org.eclipse.wst.sse.ui",1380890928874
started,bundle,org.eclipse.wst.validation,1.2.303.v201202090300,"org.eclipse.wst.validation",1380890928874
started,bundle,org.eclipse.wst.xml.core,1.1.602.v201201091944,"org.eclipse.wst.xml.core",1380890928875
started,bundle,org.eclipse.wst.xml.ui,1.1.202.v201112071516,"org.eclipse.wst.xml.ui",1380890928876
started,bundle,com.android.ide.eclipse.adt,22.2.1.v201309180102-833290,"com.android.ide.eclipse.adt",1380890928877
started,bundle,com.android.ide.eclipse.base,22.2.1.v201309180102-833290,"com.android.ide.eclipse.base",1380890928877
started,bundle,org.eclipse.cdt.dsf,2.2.0.201202111925,"org.eclipse.cdt.dsf",1380890928878
started,bundle,org.eclipse.cdt.dsf.gdb,4.0.2.201202111925,"org.eclipse.cdt.dsf.gdb",1380890928878
started,bundle,org.eclipse.cdt.dsf.gdb.ui,2.2.1.201202111925,"org.eclipse.cdt.dsf.gdb.ui",1380890928879
os,sysinfo,,,"linux",1380890928883
arch,sysinfo,,,"x86_64",1380890928883
ws,sysinfo,,,"gtk",1380890928883
locale,sysinfo,,,"en_IE",1380890928883
processors,sysinfo,,,"4",1380890928884
java.runtime.name,sysinfo,,,"OpenJDK Runtime Environment",1380890928884
java.runtime.version,sysinfo,,,"1.6.0_27-b27",1380890928884
java.specification.name,sysinfo,,,"Java Platform API Specification",1380890928884
java.specification.vendor,sysinfo,,,"Sun Microsystems Inc.",1380890928884
java.specification.version,sysinfo,,,"1.6",1380890928884
java.vendor,sysinfo,,,"Sun Microsystems Inc.",1380890928884
java.version,sysinfo,,,"1.6.0_27",1380890928884
java.vm.info,sysinfo,,,"mixed mode",1380890928884
java.vm.name,sysinfo,,,"OpenJDK 64-Bit Server VM",1380890928884
java.vm.specification.name,sysinfo,,,"Java Virtual Machine Specification",1380890928884
java.vm.specification.vendor,sysinfo,,,"Sun Microsystems Inc.",1380890928884
java.vm.specification.version,sysinfo,,,"1.0",1380890928884
java.vm.vendor,sysinfo,,,"Sun Microsystems Inc.",1380890928884
java.vm.version,sysinfo,,,"20.0-b12",1380890928884
started,bundle,org.eclipse.m2e.usagedata,1.0.200.20111228-1245,"org.eclipse.m2e.usagedata",1380890928887
started,bundle,org.eclipse.wb.discovery.ui,1.3.0.r37x201202052340,"org.eclipse.wb.discovery.ui",1380890929545
started,bundle,org.eclipse.cdt.codan.ui.cxx,2.0.0.201202111925,"org.eclipse.cdt.codan.ui.cxx",1380890929565
started,bundle,org.eclipse.cdt.make.core,7.1.2.201202111925,"org.eclipse.cdt.make.core",1380890929630
started,bundle,org.eclipse.cdt.managedbuilder.core,8.0.2.201202111925,"org.eclipse.cdt.managedbuilder.core",1380890929675
started,bundle,org.eclipse.cdt.core,5.3.2.201202111925,"org.eclipse.cdt.core",1380890929733
started,bundle,org.eclipse.ui.navigator,3.5.101.v20120106-1355,"org.eclipse.ui.navigator",1380890929763
started,bundle,org.eclipse.cdt.ui,5.3.2.201202111925,"org.eclipse.cdt.ui",1380890929827
