what,kind,bundleId,bundleVersion,description,time
executed,command,org.eclipse.ui,3.7.0.v20110928-1505,"org.eclipse.ui.edit.paste",1381091926840
executed,command,org.eclipse.ui,3.7.0.v20110928-1505,"org.eclipse.ui.edit.paste",1381091931069
executed,command,org.eclipse.ui,3.7.0.v20110928-1505,"org.eclipse.ui.file.save",1381091933225
deactivated,workbench,org.eclipse.ui.workbench,3.7.1.v20120104-1859,"",1381091936276
activated,workbench,org.eclipse.ui.workbench,3.7.1.v20120104-1859,"",1381091995650
activated,view,org.eclipse.jdt.ui,3.7.2.v20120109-1427,"org.eclipse.jdt.ui.PackageExplorer",1381091998895
executed,command,,,"com.android.ide.eclipse.adt.debug.launching.LaunchShortcut.run",1381092002230
deactivated,workbench,org.eclipse.ui.workbench,3.7.1.v20120104-1859,"",1381092002711
activated,workbench,org.eclipse.ui.workbench,3.7.1.v20120104-1859,"",1381092004334
deactivated,workbench,org.eclipse.ui.workbench,3.7.1.v20120104-1859,"",1381092073138
activated,workbench,org.eclipse.ui.workbench,3.7.1.v20120104-1859,"",1381092366816
activated,editor,com.android.ide.eclipse.adt,22.2.1.v201309180102-833290,"com.android.ide.eclipse.editors.CommonXmlEditor",1381092369465
executed,command,org.eclipse.ui,3.7.0.v20110928-1505,"org.eclipse.ui.file.save",1381092401391
activated,view,org.eclipse.jdt.ui,3.7.2.v20120109-1427,"org.eclipse.jdt.ui.PackageExplorer",1381092403481
executed,command,,,"com.android.ide.eclipse.adt.debug.launching.LaunchShortcut.run",1381092406096
deactivated,workbench,org.eclipse.ui.workbench,3.7.1.v20120104-1859,"",1381092406546
activated,workbench,org.eclipse.ui.workbench,3.7.1.v20120104-1859,"",1381092412087
deactivated,workbench,org.eclipse.ui.workbench,3.7.1.v20120104-1859,"",1381092435975
activated,workbench,org.eclipse.ui.workbench,3.7.1.v20120104-1859,"",1381092536895
opened,editor,com.android.ide.eclipse.adt,22.2.1.v201309180102-833290,"com.android.ide.eclipse.editors.manifest.ManifestEditor",1381092540409
activated,editor,com.android.ide.eclipse.adt,22.2.1.v201309180102-833290,"com.android.ide.eclipse.editors.manifest.ManifestEditor",1381092540455
activated,view,org.eclipse.jdt.ui,3.7.2.v20120109-1427,"org.eclipse.jdt.ui.PackageExplorer",1381092540484
deactivated,workbench,org.eclipse.ui.workbench,3.7.1.v20120104-1859,"",1381092542020
activated,workbench,org.eclipse.ui.workbench,3.7.1.v20120104-1859,"",1381092542073
activated,editor,com.android.ide.eclipse.adt,22.2.1.v201309180102-833290,"com.android.ide.eclipse.editors.manifest.ManifestEditor",1381092545352
executed,command,org.eclipse.ui,3.7.0.v20110928-1505,"org.eclipse.ui.file.save",1381092607673
activated,view,org.eclipse.jdt.ui,3.7.2.v20120109-1427,"org.eclipse.jdt.ui.PackageExplorer",1381092613476
executed,command,,,"com.android.ide.eclipse.adt.debug.launching.LaunchShortcut.run",1381092616035
deactivated,workbench,org.eclipse.ui.workbench,3.7.1.v20120104-1859,"",1381092616503
activated,workbench,org.eclipse.ui.workbench,3.7.1.v20120104-1859,"",1381092624300
deactivated,workbench,org.eclipse.ui.workbench,3.7.1.v20120104-1859,"",1381092682135
activated,workbench,org.eclipse.ui.workbench,3.7.1.v20120104-1859,"",1381092756160
deactivated,workbench,org.eclipse.ui.workbench,3.7.1.v20120104-1859,"",1381092757791
activated,workbench,org.eclipse.ui.workbench,3.7.1.v20120104-1859,"",1381092758932
activated,editor,org.eclipse.jdt.ui,3.7.2.v20120109-1427,"org.eclipse.jdt.ui.CompilationUnitEditor",1381092760987
executed,command,org.eclipse.ui,3.7.0.v20110928-1505,"org.eclipse.ui.edit.paste",1381092793526
executed,command,org.eclipse.ui,3.7.0.v20110928-1505,"org.eclipse.ui.edit.copy",1381092835142
executed,command,org.eclipse.ui,3.7.0.v20110928-1505,"org.eclipse.ui.edit.paste",1381092839177
executed,command,org.eclipse.ui,3.7.0.v20110928-1505,"org.eclipse.ui.edit.undo",1381092855872
executed,command,org.eclipse.ui,3.7.0.v20110928-1505,"org.eclipse.ui.edit.undo",1381092856412
executed,command,org.eclipse.ui,3.7.0.v20110928-1505,"org.eclipse.ui.edit.undo",1381092863680
executed,command,org.eclipse.ui,3.7.0.v20110928-1505,"org.eclipse.ui.edit.copy",1381092896477
executed,command,org.eclipse.ui,3.7.0.v20110928-1505,"org.eclipse.ui.edit.paste",1381092908360
executed,command,org.eclipse.ui,3.7.0.v20110928-1505,"org.eclipse.ui.edit.copy",1381092932840
executed,command,org.eclipse.ui,3.7.0.v20110928-1505,"org.eclipse.ui.edit.paste",1381092937281
executed,command,org.eclipse.ui,3.7.0.v20110928-1505,"org.eclipse.ui.edit.paste",1381092940206
deactivated,workbench,org.eclipse.ui.workbench,3.7.1.v20120104-1859,"",1381092957183
activated,workbench,org.eclipse.ui.workbench,3.7.1.v20120104-1859,"",1381092995365
executed,command,org.eclipse.ui,3.7.0.v20110928-1505,"org.eclipse.ui.edit.copy",1381093035262
executed,command,org.eclipse.ui,3.7.0.v20110928-1505,"org.eclipse.ui.edit.paste",1381093037924
executed,command,org.eclipse.ui,3.7.0.v20110928-1505,"org.eclipse.ui.edit.paste",1381093047717
executed,command,org.eclipse.ui,3.7.0.v20110928-1505,"org.eclipse.ui.edit.paste",1381093054464
executed,command,org.eclipse.ui,3.7.0.v20110928-1505,"org.eclipse.ui.file.save",1381093064245
deactivated,workbench,org.eclipse.ui.workbench,3.7.1.v20120104-1859,"",1381093076035
activated,workbench,org.eclipse.ui.workbench,3.7.1.v20120104-1859,"",1381093197096
deactivated,workbench,org.eclipse.ui.workbench,3.7.1.v20120104-1859,"",1381093204108
activated,workbench,org.eclipse.ui.workbench,3.7.1.v20120104-1859,"",1381093232929
activated,view,org.eclipse.jdt.ui,3.7.2.v20120109-1427,"org.eclipse.jdt.ui.PackageExplorer",1381093233988
deactivated,workbench,org.eclipse.ui.workbench,3.7.1.v20120104-1859,"",1381093240435
started,bundle,org.eclipse.mylyn.ide.ui,3.6.0.v20110608-1400,"org.eclipse.mylyn.ide.ui",1381093296276
activated,workbench,org.eclipse.ui.workbench,3.7.1.v20120104-1859,"",1381093296670
opened,editor,org.eclipse.jdt.ui,3.7.2.v20120109-1427,"org.eclipse.jdt.ui.CompilationUnitEditor",1381093296782
activated,editor,org.eclipse.jdt.ui,3.7.2.v20120109-1427,"org.eclipse.jdt.ui.CompilationUnitEditor",1381093296868
deactivated,workbench,org.eclipse.ui.workbench,3.7.1.v20120104-1859,"",1381093300763
activated,workbench,org.eclipse.ui.workbench,3.7.1.v20120104-1859,"",1381093314111
activated,editor,org.eclipse.jdt.ui,3.7.2.v20120109-1427,"org.eclipse.jdt.ui.CompilationUnitEditor",1381093316155
activated,editor,com.android.ide.eclipse.adt,22.2.1.v201309180102-833290,"com.android.ide.eclipse.editors.manifest.ManifestEditor",1381093318916
activated,editor,org.eclipse.jdt.ui,3.7.2.v20120109-1427,"org.eclipse.jdt.ui.CompilationUnitEditor",1381093320656
closed,editor,com.android.ide.eclipse.adt,22.2.1.v201309180102-833290,"com.android.ide.eclipse.editors.manifest.ManifestEditor",1381093320656
executed,command,org.eclipse.ui,3.7.0.v20110928-1505,"org.eclipse.ui.edit.copy",1381093334141
deactivated,workbench,org.eclipse.ui.workbench,3.7.1.v20120104-1859,"",1381093336546
activated,workbench,org.eclipse.ui.workbench,3.7.1.v20120104-1859,"",1381093348569
activated,editor,org.eclipse.jdt.ui,3.7.2.v20120109-1427,"org.eclipse.jdt.ui.CompilationUnitEditor",1381093350483
executed,command,org.eclipse.ui,3.7.0.v20110928-1505,"org.eclipse.ui.edit.paste",1381093356012
executed,command,org.eclipse.ui,3.7.0.v20110928-1505,"org.eclipse.ui.file.save",1381093363253
deactivated,workbench,org.eclipse.ui.workbench,3.7.1.v20120104-1859,"",1381093371544
activated,workbench,org.eclipse.ui.workbench,3.7.1.v20120104-1859,"",1381093380364
deactivated,workbench,org.eclipse.ui.workbench,3.7.1.v20120104-1859,"",1381093384573
activated,workbench,org.eclipse.ui.workbench,3.7.1.v20120104-1859,"",1381093426815
activated,view,org.eclipse.jdt.ui,3.7.2.v20120109-1427,"org.eclipse.jdt.ui.PackageExplorer",1381093430155
activated,editor,org.eclipse.jdt.ui,3.7.2.v20120109-1427,"org.eclipse.jdt.ui.CompilationUnitEditor",1381093430332
activated,view,org.eclipse.jdt.ui,3.7.2.v20120109-1427,"org.eclipse.jdt.ui.PackageExplorer",1381093430360
activated,editor,org.eclipse.jdt.ui,3.7.2.v20120109-1427,"org.eclipse.jdt.ui.CompilationUnitEditor",1381093432071
closed,editor,com.android.ide.eclipse.adt,22.2.1.v201309180102-833290,"com.android.ide.eclipse.editors.CommonXmlEditor",1381093432075
closed,editor,com.android.ide.eclipse.adt,22.2.1.v201309180102-833290,"com.android.ide.eclipse.editors.CommonXmlEditor",1381093433604
activated,editor,org.eclipse.jdt.ui,3.7.2.v20120109-1427,"org.eclipse.jdt.ui.CompilationUnitEditor",1381093439935
executed,command,org.eclipse.ui,3.7.0.v20110928-1505,"org.eclipse.ui.file.save",1381093458349
executed,command,org.eclipse.ui,3.7.0.v20110928-1505,"org.eclipse.ui.file.save",1381093464114
activated,editor,org.eclipse.jdt.ui,3.7.2.v20120109-1427,"org.eclipse.jdt.ui.CompilationUnitEditor",1381093465132
executed,command,org.eclipse.ui,3.7.0.v20110928-1505,"org.eclipse.ui.file.save",1381093470266
activated,view,org.eclipse.jdt.ui,3.7.2.v20120109-1427,"org.eclipse.jdt.ui.PackageExplorer",1381093474248
executed,command,,,"com.android.ide.eclipse.adt.debug.launching.LaunchShortcut.run",1381093479817
deactivated,workbench,org.eclipse.ui.workbench,3.7.1.v20120104-1859,"",1381093480195
activated,workbench,org.eclipse.ui.workbench,3.7.1.v20120104-1859,"",1381093483090
activated,editor,org.eclipse.jdt.ui,3.7.2.v20120109-1427,"org.eclipse.jdt.ui.CompilationUnitEditor",1381093513248
activated,editor,org.eclipse.jdt.ui,3.7.2.v20120109-1427,"org.eclipse.jdt.ui.CompilationUnitEditor",1381093515385
executed,command,org.eclipse.ui,3.7.0.v20110928-1505,"org.eclipse.ui.file.save",1381093522467
activated,view,org.eclipse.jdt.ui,3.7.2.v20120109-1427,"org.eclipse.jdt.ui.PackageExplorer",1381093524557
executed,command,,,"com.android.ide.eclipse.adt.debug.launching.LaunchShortcut.run",1381093528743
deactivated,workbench,org.eclipse.ui.workbench,3.7.1.v20120104-1859,"",1381093529138
activated,workbench,org.eclipse.ui.workbench,3.7.1.v20120104-1859,"",1381093530937
activated,editor,org.eclipse.jdt.ui,3.7.2.v20120109-1427,"org.eclipse.jdt.ui.CompilationUnitEditor",1381093558237
executed,command,org.eclipse.ui,3.7.0.v20110928-1505,"org.eclipse.ui.file.save",1381093560912
deactivated,workbench,org.eclipse.ui.workbench,3.7.1.v20120104-1859,"",1381093579104
activated,workbench,org.eclipse.ui.workbench,3.7.1.v20120104-1859,"",1381093979624
activated,editor,org.eclipse.jdt.ui,3.7.2.v20120109-1427,"org.eclipse.jdt.ui.CompilationUnitEditor",1381093982104
activated,editor,org.eclipse.jdt.ui,3.7.2.v20120109-1427,"org.eclipse.jdt.ui.CompilationUnitEditor",1381093983544
activated,editor,org.eclipse.jdt.ui,3.7.2.v20120109-1427,"org.eclipse.jdt.ui.CompilationUnitEditor",1381093984511
executed,command,org.eclipse.ui,3.7.0.v20110928-1505,"org.eclipse.ui.edit.paste",1381093990208
executed,command,org.eclipse.jdt.ui,3.7.2.v20120109-1427,"org.eclipse.jdt.ui.edit.text.java.organize.imports",1381093996297
executed,command,org.eclipse.ui,3.7.0.v20110928-1505,"org.eclipse.ui.file.save",1381094001402
activated,view,org.eclipse.jdt.ui,3.7.2.v20120109-1427,"org.eclipse.jdt.ui.PackageExplorer",1381094011600
executed,command,,,"com.android.ide.eclipse.adt.debug.launching.LaunchShortcut.run",1381094014033
deactivated,workbench,org.eclipse.ui.workbench,3.7.1.v20120104-1859,"",1381094014409
activated,workbench,org.eclipse.ui.workbench,3.7.1.v20120104-1859,"",1381094016905
deactivated,workbench,org.eclipse.ui.workbench,3.7.1.v20120104-1859,"",1381094234877
activated,workbench,org.eclipse.ui.workbench,3.7.1.v20120104-1859,"",1381094234937
activated,editor,org.eclipse.jdt.ui,3.7.2.v20120109-1427,"org.eclipse.jdt.ui.CompilationUnitEditor",1381094235736
executed,command,org.eclipse.ui,3.7.0.v20110928-1505,"org.eclipse.ui.edit.copy",1381094239805
executed,command,org.eclipse.ui,3.7.0.v20110928-1505,"org.eclipse.ui.edit.paste",1381094244942
executed,command,org.eclipse.ui,3.7.0.v20110928-1505,"org.eclipse.ui.edit.copy",1381094262191
executed,command,org.eclipse.ui,3.7.0.v20110928-1505,"org.eclipse.ui.edit.paste",1381094265414
deactivated,workbench,org.eclipse.ui.workbench,3.7.1.v20120104-1859,"",1381094277952
activated,workbench,org.eclipse.ui.workbench,3.7.1.v20120104-1859,"",1381094589839
executed,command,org.eclipse.ui,3.7.0.v20110928-1505,"org.eclipse.ui.edit.paste",1381094596957
executed,command,org.eclipse.jdt.ui,3.7.2.v20120109-1427,"org.eclipse.jdt.ui.edit.text.java.organize.imports",1381094600653
executed,command,org.eclipse.jdt.ui,3.7.2.v20120109-1427,"org.eclipse.jdt.ui.edit.text.java.organize.imports",1381094603365
executed,command,org.eclipse.ui,3.7.0.v20110928-1505,"org.eclipse.ui.edit.undo",1381094621614
deactivated,workbench,org.eclipse.ui.workbench,3.7.1.v20120104-1859,"",1381094637173
activated,workbench,org.eclipse.ui.workbench,3.7.1.v20120104-1859,"",1381094641759
executed,command,org.eclipse.ui,3.7.0.v20110928-1505,"org.eclipse.ui.edit.delete",1381094645028
executed,command,org.eclipse.ui,3.7.0.v20110928-1505,"org.eclipse.ui.edit.delete",1381094645526
executed,command,org.eclipse.ui,3.7.0.v20110928-1505,"org.eclipse.ui.edit.delete",1381094645553
executed,command,org.eclipse.ui,3.7.0.v20110928-1505,"org.eclipse.ui.edit.delete",1381094645581
executed,command,org.eclipse.ui,3.7.0.v20110928-1505,"org.eclipse.ui.edit.delete",1381094645609
executed,command,org.eclipse.ui,3.7.0.v20110928-1505,"org.eclipse.ui.edit.delete",1381094645809
executed,command,org.eclipse.ui,3.7.0.v20110928-1505,"org.eclipse.ui.edit.delete",1381094645969
executed,command,org.eclipse.ui,3.7.0.v20110928-1505,"org.eclipse.ui.edit.delete",1381094646112
executed,command,org.eclipse.ui,3.7.0.v20110928-1505,"org.eclipse.ui.edit.delete",1381094646255
executed,command,org.eclipse.ui,3.7.0.v20110928-1505,"org.eclipse.ui.edit.delete",1381094646399
executed,command,org.eclipse.ui,3.7.0.v20110928-1505,"org.eclipse.ui.edit.delete",1381094646574
executed,command,org.eclipse.ui,3.7.0.v20110928-1505,"org.eclipse.ui.edit.delete",1381094646754
executed,command,org.eclipse.ui,3.7.0.v20110928-1505,"org.eclipse.ui.edit.delete",1381094646909
executed,command,org.eclipse.ui,3.7.0.v20110928-1505,"org.eclipse.ui.edit.delete",1381094647062
executed,command,org.eclipse.ui,3.7.0.v20110928-1505,"org.eclipse.ui.edit.delete",1381094647229
executed,command,org.eclipse.ui,3.7.0.v20110928-1505,"org.eclipse.ui.edit.delete",1381094647452
executed,command,org.eclipse.ui.workbench.texteditor,3.7.0.v20110928-1504,"org.eclipse.ui.edit.text.delete.line",1381094654272
executed,command,org.eclipse.ui,3.7.0.v20110928-1505,"org.eclipse.ui.edit.undo",1381094657577
executed,command,org.eclipse.ui,3.7.0.v20110928-1505,"org.eclipse.ui.file.save",1381094661279
activated,view,org.eclipse.jdt.ui,3.7.2.v20120109-1427,"org.eclipse.jdt.ui.PackageExplorer",1381094663975
executed,command,,,"com.android.ide.eclipse.adt.debug.launching.LaunchShortcut.run",1381094669181
deactivated,workbench,org.eclipse.ui.workbench,3.7.1.v20120104-1859,"",1381094669562
activated,workbench,org.eclipse.ui.workbench,3.7.1.v20120104-1859,"",1381094671659
deactivated,workbench,org.eclipse.ui.workbench,3.7.1.v20120104-1859,"",1381094726801
activated,workbench,org.eclipse.ui.workbench,3.7.1.v20120104-1859,"",1381095314412
deactivated,workbench,org.eclipse.ui.workbench,3.7.1.v20120104-1859,"",1381095318715
activated,workbench,org.eclipse.ui.workbench,3.7.1.v20120104-1859,"",1381095545263
activated,editor,org.eclipse.jdt.ui,3.7.2.v20120109-1427,"org.eclipse.jdt.ui.CompilationUnitEditor",1381095551520
executed,command,org.eclipse.ui,3.7.0.v20110928-1505,"org.eclipse.ui.edit.undo",1381095563199
executed,command,org.eclipse.ui,3.7.0.v20110928-1505,"org.eclipse.ui.edit.undo",1381095563926
executed,command,org.eclipse.ui,3.7.0.v20110928-1505,"org.eclipse.ui.edit.undo",1381095565080
activated,view,org.eclipse.jdt.ui,3.7.2.v20120109-1427,"org.eclipse.jdt.ui.PackageExplorer",1381095573329
executed,command,,,"com.android.ide.eclipse.adt.debug.launching.LaunchShortcut.run",1381095575723
deactivated,workbench,org.eclipse.ui.workbench,3.7.1.v20120104-1859,"",1381095575893
activated,workbench,org.eclipse.ui.workbench,3.7.1.v20120104-1859,"",1381095583625
deactivated,workbench,org.eclipse.ui.workbench,3.7.1.v20120104-1859,"",1381095657096
activated,workbench,org.eclipse.ui.workbench,3.7.1.v20120104-1859,"",1381095677926
deactivated,workbench,org.eclipse.ui.workbench,3.7.1.v20120104-1859,"",1381095678844
activated,workbench,org.eclipse.ui.workbench,3.7.1.v20120104-1859,"",1381095722503
executed,command,,,"com.android.ide.eclipse.adt.debug.launching.LaunchShortcut.run",1381095725072
deactivated,workbench,org.eclipse.ui.workbench,3.7.1.v20120104-1859,"",1381095725243
activated,workbench,org.eclipse.ui.workbench,3.7.1.v20120104-1859,"",1381095728169
deactivated,workbench,org.eclipse.ui.workbench,3.7.1.v20120104-1859,"",1381095729765
activated,workbench,org.eclipse.ui.workbench,3.7.1.v20120104-1859,"",1381095756762
deactivated,workbench,org.eclipse.ui.workbench,3.7.1.v20120104-1859,"",1381095764979
activated,workbench,org.eclipse.ui.workbench,3.7.1.v20120104-1859,"",1381095823373
activated,editor,org.eclipse.jdt.ui,3.7.2.v20120109-1427,"org.eclipse.jdt.ui.CompilationUnitEditor",1381095828125
executed,command,org.eclipse.ui,3.7.0.v20110928-1505,"org.eclipse.ui.edit.copy",1381095836831
executed,command,org.eclipse.ui,3.7.0.v20110928-1505,"org.eclipse.ui.edit.paste",1381095839786
executed,command,org.eclipse.ui,3.7.0.v20110928-1505,"org.eclipse.ui.file.save",1381095854152
deactivated,workbench,org.eclipse.ui.workbench,3.7.1.v20120104-1859,"",1381095856364
activated,workbench,org.eclipse.ui.workbench,3.7.1.v20120104-1859,"",1381096140133
activated,editor,org.eclipse.jdt.ui,3.7.2.v20120109-1427,"org.eclipse.jdt.ui.CompilationUnitEditor",1381096153568
deactivated,workbench,org.eclipse.ui.workbench,3.7.1.v20120104-1859,"",1381096162758
activated,workbench,org.eclipse.ui.workbench,3.7.1.v20120104-1859,"",1381096489297
deactivated,workbench,org.eclipse.ui.workbench,3.7.1.v20120104-1859,"",1381096490659
activated,workbench,org.eclipse.ui.workbench,3.7.1.v20120104-1859,"",1381096491836
activated,view,org.eclipse.jdt.ui,3.7.2.v20120109-1427,"org.eclipse.jdt.ui.PackageExplorer",1381096495159
opened,editor,com.android.ide.eclipse.adt,22.2.1.v201309180102-833290,"com.android.ide.eclipse.editors.manifest.ManifestEditor",1381096495318
activated,editor,com.android.ide.eclipse.adt,22.2.1.v201309180102-833290,"com.android.ide.eclipse.editors.manifest.ManifestEditor",1381096495380
activated,view,org.eclipse.jdt.ui,3.7.2.v20120109-1427,"org.eclipse.jdt.ui.PackageExplorer",1381096495409
activated,editor,com.android.ide.eclipse.adt,22.2.1.v201309180102-833290,"com.android.ide.eclipse.editors.manifest.ManifestEditor",1381096502444
executed,command,org.eclipse.ui,3.7.0.v20110928-1505,"org.eclipse.ui.file.save",1381096518437
deactivated,workbench,org.eclipse.ui.workbench,3.7.1.v20120104-1859,"",1381096543493
activated,workbench,org.eclipse.ui.workbench,3.7.1.v20120104-1859,"",1381096577286
executed,command,org.eclipse.ui,3.7.0.v20110928-1505,"org.eclipse.ui.edit.paste",1381096580747
executed,command,org.eclipse.ui,3.7.0.v20110928-1505,"org.eclipse.ui.file.save",1381096588871
executed,command,org.eclipse.ui,3.7.0.v20110928-1505,"org.eclipse.ui.file.save",1381096603327
deactivated,workbench,org.eclipse.ui.workbench,3.7.1.v20120104-1859,"",1381096605430
activated,workbench,org.eclipse.ui.workbench,3.7.1.v20120104-1859,"",1381096666836
deactivated,workbench,org.eclipse.ui.workbench,3.7.1.v20120104-1859,"",1381096674524
activated,workbench,org.eclipse.ui.workbench,3.7.1.v20120104-1859,"",1381096675911
deactivated,workbench,org.eclipse.ui.workbench,3.7.1.v20120104-1859,"",1381096679506
activated,workbench,org.eclipse.ui.workbench,3.7.1.v20120104-1859,"",1381096988509
deactivated,workbench,org.eclipse.ui.workbench,3.7.1.v20120104-1859,"",1381096990977
activated,workbench,org.eclipse.ui.workbench,3.7.1.v20120104-1859,"",1381096993913
deactivated,workbench,org.eclipse.ui.workbench,3.7.1.v20120104-1859,"",1381096996791
activated,workbench,org.eclipse.ui.workbench,3.7.1.v20120104-1859,"",1381097079409
activated,view,org.eclipse.jdt.ui,3.7.2.v20120109-1427,"org.eclipse.jdt.ui.PackageExplorer",1381097085821
deactivated,workbench,org.eclipse.ui.workbench,3.7.1.v20120104-1859,"",1381097092466
activated,workbench,org.eclipse.ui.workbench,3.7.1.v20120104-1859,"",1381097097607
deactivated,workbench,org.eclipse.ui.workbench,3.7.1.v20120104-1859,"",1381097104191
activated,workbench,org.eclipse.ui.workbench,3.7.1.v20120104-1859,"",1381097109089
opened,editor,com.android.ide.eclipse.adt,22.2.1.v201309180102-833290,"com.android.ide.eclipse.editors.CommonXmlEditor",1381097112193
activated,editor,com.android.ide.eclipse.adt,22.2.1.v201309180102-833290,"com.android.ide.eclipse.editors.CommonXmlEditor",1381097112245
activated,view,org.eclipse.jdt.ui,3.7.2.v20120109-1427,"org.eclipse.jdt.ui.PackageExplorer",1381097112285
activated,editor,com.android.ide.eclipse.adt,22.2.1.v201309180102-833290,"com.android.ide.eclipse.editors.CommonXmlEditor",1381097123046
activated,view,org.eclipse.jdt.ui,3.7.2.v20120109-1427,"org.eclipse.jdt.ui.PackageExplorer",1381097153029
opened,editor,com.android.ide.eclipse.adt,22.2.1.v201309180102-833290,"com.android.ide.eclipse.editors.CommonXmlEditor",1381097158039
activated,editor,com.android.ide.eclipse.adt,22.2.1.v201309180102-833290,"com.android.ide.eclipse.editors.CommonXmlEditor",1381097158094
activated,view,org.eclipse.jdt.ui,3.7.2.v20120109-1427,"org.eclipse.jdt.ui.PackageExplorer",1381097158121
activated,editor,com.android.ide.eclipse.adt,22.2.1.v201309180102-833290,"com.android.ide.eclipse.editors.CommonXmlEditor",1381097175173
executed,command,org.eclipse.ui.workbench.texteditor,3.7.0.v20110928-1504,"org.eclipse.ui.edit.text.toggleOverwrite",1381097188804
executed,command,org.eclipse.ui.workbench.texteditor,3.7.0.v20110928-1504,"org.eclipse.ui.edit.text.toggleOverwrite",1381097192703
executed,command,org.eclipse.ui,3.7.0.v20110928-1505,"org.eclipse.ui.file.save",1381097220566
deactivated,workbench,org.eclipse.ui.workbench,3.7.1.v20120104-1859,"",1381097229524
activated,workbench,org.eclipse.ui.workbench,3.7.1.v20120104-1859,"",1381097235593
deactivated,workbench,org.eclipse.ui.workbench,3.7.1.v20120104-1859,"",1381097237027
activated,workbench,org.eclipse.ui.workbench,3.7.1.v20120104-1859,"",1381097289466
executed,command,org.eclipse.ui,3.7.0.v20110928-1505,"org.eclipse.ui.edit.paste",1381097294176
executed,command,org.eclipse.ui,3.7.0.v20110928-1505,"org.eclipse.ui.edit.copy",1381097327398
executed,command,org.eclipse.ui,3.7.0.v20110928-1505,"org.eclipse.ui.edit.paste",1381097331623
deactivated,workbench,org.eclipse.ui.workbench,3.7.1.v20120104-1859,"",1381097364373
activated,workbench,org.eclipse.ui.workbench,3.7.1.v20120104-1859,"",1381097983423
deactivated,workbench,org.eclipse.ui.workbench,3.7.1.v20120104-1859,"",1381097984859
activated,workbench,org.eclipse.ui.workbench,3.7.1.v20120104-1859,"",1381097993812
activated,view,org.eclipse.jdt.ui,3.7.2.v20120109-1427,"org.eclipse.jdt.ui.PackageExplorer",1381097993848
executed,command,org.eclipse.ui,3.7.0.v20110928-1505,"org.eclipse.ui.edit.paste",1381097998733
deactivated,workbench,org.eclipse.ui.workbench,3.7.1.v20120104-1859,"",1381098031024
activated,workbench,org.eclipse.ui.workbench,3.7.1.v20120104-1859,"",1381098042669
deactivated,workbench,org.eclipse.ui.workbench,3.7.1.v20120104-1859,"",1381098042959
started,bundle,org.eclipse.ant.ui,3.5.101.v20120110-1739,"org.eclipse.ant.ui",1381098053763
executed,command,org.eclipse.ui,3.7.0.v20110928-1505,"org.eclipse.ui.edit.rename",1381098054086
activated,workbench,org.eclipse.ui.workbench,3.7.1.v20120104-1859,"",1381098054112
activated,editor,com.android.ide.eclipse.adt,22.2.1.v201309180102-833290,"com.android.ide.eclipse.editors.CommonXmlEditor",1381098068481
executed,command,org.eclipse.ui,3.7.0.v20110928-1505,"org.eclipse.ui.file.save",1381098077273
deactivated,workbench,org.eclipse.ui.workbench,3.7.1.v20120104-1859,"",1381098099219
executed,command,org.eclipse.ui,3.7.0.v20110928-1505,"org.eclipse.ui.edit.copy",1381098103755
activated,workbench,org.eclipse.ui.workbench,3.7.1.v20120104-1859,"",1381098159755
deactivated,workbench,org.eclipse.ui.workbench,3.7.1.v20120104-1859,"",1381098167974
activated,workbench,org.eclipse.ui.workbench,3.7.1.v20120104-1859,"",1381098169076
executed,command,org.eclipse.ui,3.7.0.v20110928-1505,"org.eclipse.ui.file.save",1381098184330
executed,command,org.eclipse.ui,3.7.0.v20110928-1505,"org.eclipse.ui.file.save",1381098202649
activated,view,org.eclipse.jdt.ui,3.7.2.v20120109-1427,"org.eclipse.jdt.ui.PackageExplorer",1381098221331
executed,command,,,"com.android.ide.eclipse.adt.debug.launching.LaunchShortcut.run",1381098223569
deactivated,workbench,org.eclipse.ui.workbench,3.7.1.v20120104-1859,"",1381098224011
activated,workbench,org.eclipse.ui.workbench,3.7.1.v20120104-1859,"",1381098226788
activated,editor,com.android.ide.eclipse.adt,22.2.1.v201309180102-833290,"com.android.ide.eclipse.editors.CommonXmlEditor",1381098245659
executed,command,org.eclipse.ui,3.7.0.v20110928-1505,"org.eclipse.ui.edit.copy",1381098248138
activated,view,org.eclipse.jdt.ui,3.7.2.v20120109-1427,"org.eclipse.jdt.ui.PackageExplorer",1381098249839
activated,editor,com.android.ide.eclipse.adt,22.2.1.v201309180102-833290,"com.android.ide.eclipse.editors.manifest.ManifestEditor",1381098250002
activated,view,org.eclipse.jdt.ui,3.7.2.v20120109-1427,"org.eclipse.jdt.ui.PackageExplorer",1381098250039
activated,editor,com.android.ide.eclipse.adt,22.2.1.v201309180102-833290,"com.android.ide.eclipse.editors.manifest.ManifestEditor",1381098257663
executed,command,org.eclipse.ui,3.7.0.v20110928-1505,"org.eclipse.ui.edit.paste",1381098260862
executed,command,org.eclipse.ui,3.7.0.v20110928-1505,"org.eclipse.ui.file.save",1381098263698
executed,command,org.eclipse.ui,3.7.0.v20110928-1505,"org.eclipse.ui.file.save",1381098269285
activated,view,org.eclipse.jdt.ui,3.7.2.v20120109-1427,"org.eclipse.jdt.ui.PackageExplorer",1381098277566
executed,command,,,"com.android.ide.eclipse.adt.debug.launching.LaunchShortcut.run",1381098279562
deactivated,workbench,org.eclipse.ui.workbench,3.7.1.v20120104-1859,"",1381098280020
activated,workbench,org.eclipse.ui.workbench,3.7.1.v20120104-1859,"",1381098282478
deactivated,workbench,org.eclipse.ui.workbench,3.7.1.v20120104-1859,"",1381098322011
activated,workbench,org.eclipse.ui.workbench,3.7.1.v20120104-1859,"",1381098323847
activated,editor,com.android.ide.eclipse.adt,22.2.1.v201309180102-833290,"com.android.ide.eclipse.editors.CommonXmlEditor",1381098326980
activated,view,org.eclipse.jdt.ui,3.7.2.v20120109-1427,"org.eclipse.jdt.ui.PackageExplorer",1381098327012
activated,editor,com.android.ide.eclipse.adt,22.2.1.v201309180102-833290,"com.android.ide.eclipse.editors.CommonXmlEditor",1381098333143
